<define-tag pagetitle>DSA-4353-1 php7.0</define-tag>
<define-tag report_date>2018-12-10</define-tag>
<define-tag secrefs>CVE-2018-14851 CVE-2018-14883 CVE-2018-17082 CVE-2018-19518 CVE-2018-19935</define-tag>
<define-tag packages>php7.0</define-tag>
<define-tag isvulnerable>yes</define-tag>
<define-tag fixed>yes</define-tag>
<define-tag fixed-section>no</define-tag>

#use wml::debian::security



</dl>
