-=-=-=-=-=-=-=-=-=-=-=-=-=-=-=-=-=-=-=-=-=-=-=-=-=-=-=-=-=-=-=-=-=-=-=
Count      Debian UID		 Key Fingerprint(s)
-=-=-=-=-=-=-=-=-=-=-=-=-=-=-=-=-=-=-=-=-=-=-=-=-=-=-=-=-=-=-=-=-=-=-=
    1           93sam		CEBB52301D617E910390FE16587979573442684E
    2             aba		E820094883974FDC3CD00EC699D399A1EC36A185
    3             abe		F067EA2726B9C3FC1486202EC09E1D8995930EDE
    4             abi		75D8908EBD35E31D94D102EF10557B83807CAC25
    5          absurd		1CCFF5B3A16607D3FF6E2212CC254778F28CD102
    6            acid		5361BD40015B74382739101A611BA9508B78A5C2
    7         acornet		EA7DC27F2742024DFB1E8293B24F9D802225848E
    8           adamm		B7DF3C4162808B749627DA84EF7FDB35D6806145
    9        adconrad		C8B2CB3E322549BB5ED20002BE3CED47C6CEA0C9
   10         adejong		198DA17E5B2523BF88B6F7D45586A7DF9F8D08A7
   11             adn		E751A687D8EE4EC30922C4A5394DC5910ED704EA
   12            adsb		7203630E2C8E727251684FEBC5CE5DC2C542CD59
   13             aeb		72E5703144142EB6F6B44CBD1181703204880A44
   14        afayolle		A9F7C81F531A6D888F81203A2E5FDBE0DF67A55E
   15              ag		2FC3907C20D963EBB234D023236C60C665B4B162
   16             agi		5347CBD83E30A9EB4D7D4BF2009B33756B9AAA55
   17        agmartin		01E721217DAFB63CA00A039C58C670084597A593
   18           agney		4B6DC72F824DCF3B75AE64790FDF48D659B957AE
   19             agx		FBDF66F84CAC5E588EC477E49FCF2CCD3F3E6426
   20              ah		7451CC902F5601DBD4D678F572043670BDE5F1EE
   21            ahs3		1C778E9F923F843174A72CE5B28EBE4FBA98E15D
   22        aigarius		0E9781D69B8816F286F572CE3330A21567209BDE
   23             ajk		7579786D41105F4A4D4436911EC237D9534584E8
   24         ajmitch		1149DCAB4F2F17C6C458DC7F82091D9A5921B5D8
-=-=-=-=-=-=-=-=-=-=-=-=-=-=-=-=-=-=-=-=-=-=-=-=-=-=-=-=-=-=-=-=-=-=-=
Count      Debian UID		 Key Fingerprint(s)
-=-=-=-=-=-=-=-=-=-=-=-=-=-=-=-=-=-=-=-=-=-=-=-=-=-=-=-=-=-=-=-=-=-=-=
   25          ajqlee		47E4BB6FF629245E311677E79D0633E1B6250985
   26             ajt		C135F6A86D8F7D25F040E7B43B17BC742A4E3EAA
   27           akira		2A0DD68A657843B60C72C59B5F3931A6E213F1A0
   28          akumar		466FDDBF10560F509CDE3A4C7A8F49E8B63480BE
   29           alain		CF0B10589F1D97102CAD3F858CEEB259B3C281F4
   30            alee		D4199C0239C6A5AFBE2E97AA464DE301B74952A9
   31       alejandro		F6A7EF7E468870C66B37A8EFF6B09645B24BF200
   32         alerios		12DAD00150FDB751A32CED19A1BCBB2F306CDFF3
   33         alessio		04160004A8276E40BB9890FBE8A48AE5311D765A
   34            alex		3A3ECA3B63E3B1AB24F31BC435FECD3FEB380BE6
   35       alexander		7BC3013F8489FADC424A07B9141138DDA3E45D66
   36           alexp		8B325F49B8A5F2039A837E9CF9CA01D5E26A6F28
   37            alfs		55D640C2AE41CF92C4DC8804B9A81DDEB19B4B16
   38        algernon		10E65DC045EABEFCC5193A26AC1E90BAC433F68F
   39         aloiret		05BF5B00A17A5B32117FF7361DE4F44021275CC4
   40        alteholz		36E2EDDEC21FEC8F77B87436D362B62A54B99890
   41        amacater		F3FA275213277904846DC0DE3233C127E93ADE7B
   42           amaya		395DE808BEADD7215E8220513450ED513FCC2A90
   43          amejia		2655978EA053D586597FE5D63FB9C78A53C854DF
   44        ametzler		D2E092039EF8D496EDF4FA5EA54F018543821484
   45             ana		7A33ECAA188B96F27C917288B3464F896AA15948
   46         anarcat		8DC901CE64146C048AD50FBB792152527B75921E
   47            anbe		EBF30A30A8D9C63BDA44C6945FB33F9359E9ED08
   48             and		45C75861BE88634A0CD2905CB0A2F1A9B3E6122C
-=-=-=-=-=-=-=-=-=-=-=-=-=-=-=-=-=-=-=-=-=-=-=-=-=-=-=-=-=-=-=-=-=-=-=
Count      Debian UID		 Key Fingerprint(s)
-=-=-=-=-=-=-=-=-=-=-=-=-=-=-=-=-=-=-=-=-=-=-=-=-=-=-=-=-=-=-=-=-=-=-=
   49        anderson		0791D3B89A4C2CDCA31FBD030A62E53437A79149
   50            andi		938A5CEE1E290DE255D9AC98B01FEA84617B586D
   51         andreas		ADEE56831C993257F41DA3F2F20FAC0B7B8357E5
   52          andree		226D697EFF42A4AC7317C40688BBD7DDBD88CDAC
   53        andrelop		A0C1A28E76270AAB1A57D2385B8FE2F59D1B82F6
   54        andrewsh		782130B4C9944247977B82FD6EA4D2311A2D268D
   55           anfra		5C8CEBFC806DAA3C2B6BC0BF05048A9B631B4819
   56        angdraug		902B5C62E28D59F0F860C39AC61A895E85EE3E0E
   57           angel		EBF6080D59D4008ADF4700D4098DAE47EE3BC279
   58          anibal		C6045C813887B77C2DFF97A57C56ACFE947897D8
   59          ansgar		80E976F14A508A48E9CA3FE9BC372252CA1CF964
   60         antonio		1B65C26BDA0A507B8E342E69E93ABC69A7BE5AB0
   61        apeeters		EFD432E05C0B10950669743D032570844D2313D5
   62         apoikos		3E02FD6656295952110BAB99F51B18C720248224
   63        apollock		5B702496CFA6A507239C2D7951DFD93B3EFB79EF
   64          appaji		BF813A99E07CD0F8653D9666A8D2CD13AA544AA1
   65             apw		BB1838728F40B7E63BFCD67AE52707E90485EFCD
   66         aquette		137107DF3CF391607905144BDB6414CA204DDF1B
   67              ar		BADAB1EEB153F414CFA505F4AEEC6E7302754958
   68            ardo		274110CCBCD0DFDF7591B3E583B4B2DC119A098F
   69             ari		1998FD821B7124F525B25133888220B87E798989
   70           arjan		B9829452CAE00CFAFBF4D1635002EFB1962E3890
   71           arnau		D792B8A5A567B001C3422613BDF2A2205E3619D3
   72            arno		3BE9A67148F348F23E1E2076C72B51EE9D80F36D
-=-=-=-=-=-=-=-=-=-=-=-=-=-=-=-=-=-=-=-=-=-=-=-=-=-=-=-=-=-=-=-=-=-=-=
Count      Debian UID		 Key Fingerprint(s)
-=-=-=-=-=-=-=-=-=-=-=-=-=-=-=-=-=-=-=-=-=-=-=-=-=-=-=-=-=-=-=-=-=-=-=
   73         aroldan		0EE927C955F192E43809B852D8E0724BB29396EB
   74            aron		3A9E7D149697510A3E37CD95C38E8160A17841FE
   75       arthurliu		95908AA6E4F7BAA78BD6C148F1A69BE429C0FFEE
   76            asac		4215EA5BBDDA4DD48A7AA125BFCA4B38A824B93F
   77             asb		6EB223D7D71E67A53C93A7DA3B56E2BBD53FDCB1
   78             ash		F9F86E60FB2C0EA422BF025F9C10DDE4C6A2EB7E
   79           asias		E0FD6DAE7C51262FDAE6A28B7174A18FAAA7A078
   80         atterer		08A97B7D3D133EF23D25D15779E6F6DC888354F7
   81         aurel32		77462642A9EF94FD0F77196DBA9C78061DDD8C9B
   82        avtobiff		3A2A7ED9122EA05132225996B188AE5579F492F8
   83             awm		F6E0FA5CF0307507BB23A512EAFCFEBF8FEB8EBF
   84       awoodland		F00F67C10AC612F5418B01975098021C70518078
   85              az		DACF8509A3CAA24DC5FEA588A72FF66C42BD645D
   86           azadi		3A0B3D84370896136B845E826887935AB297B391
   87        azekulic		091B93CF28AD65C2B76C9F23FF666668B9FD8238
   88             bab		925CCE050B76EBBC96375FE731036EC736B861C1
   89          bahner		076531CE6223B28C1A644F7A99727C1454ECB8AF
   90        ballombe		42028EA404A2E9D80AC453148F0E7C2B4522E387
   91             bam		8847D2F7662095A869D0C2CF9C84EE1AB9D02636
   92            bame		C83EDA064DA5138578C7B9598DD404FF7ED87D57
   93             bap		64F429E36EA11CC2D966546F125B57475E190D18
   94           baran		DDBE8A2373481CA7FC9156CC8F3B66A6FC494FC4
   95         barbier		AC1185A49C0BE1F8180D3B07F118B5951E161AFB
   96           barry		8417157EDBE73D9EAC1E539B126EB563A74B06BF
-=-=-=-=-=-=-=-=-=-=-=-=-=-=-=-=-=-=-=-=-=-=-=-=-=-=-=-=-=-=-=-=-=-=-=
Count      Debian UID		 Key Fingerprint(s)
-=-=-=-=-=-=-=-=-=-=-=-=-=-=-=-=-=-=-=-=-=-=-=-=-=-=-=-=-=-=-=-=-=-=-=
   97           bartm		65A12DF4FE31AD6BAC4D76AE3355F4D63B5821CC
   98          baruch		F9ED8708BE1AF04829275FBD1C26ABEAAB474598
   99             bas		8210B8A457F1C6047C969AFFD183A517BFA98DE6
  100           bayle		65D7B7CA2B95916F71BE26144F1E0907AEBCE71F
  101         bcwhite		D20D5E7E7BDA7633BEA14A9F67708B14E1C142B1
  102           bdale		8470F20B062592187CBA7BB33A936196C095D941
  103       bdefreese		6F1F40039E09BD7A8099C5F3E48B65B54B394F7E
  104          bdrung		A62D2CFBD50B9B5BF360D54B159EB5C4EFC8774C
  105          behanw		6DE006ED5430A503940ED685BAC78EE5DBA50595
  106             ben		3ECB3F9C7D589FCBC939F86D54F52A8713AB03A7
  107          bencer		93AEA3727846B14E0DB38B65589A903470EB0FCE
  108          bengen		6619634A0F5DB23F6A5FFB6D5028272F3FD29468
  109            benh		AC2B29BD34A6AFDDB3F68F35E7BFC8EC95861109
  110        benjamin		D77D6312932FA19CF9CDB8517AFF4B3AC34AA484
  111          bernat		AEF2348766F371C689A7360095A42FE8353525F9
  112           berto		1B82AAF294792E7F55864F3EBE3219AF3ED41341
  113          bertol		92720B065DB1A9EEF89001FD3E7434397DD9018D
  114            beuc		7394AA3C690660115ED878E672595EB181704B93
  115            bg66		A8B90F6902FD86E7D339C9A6FA96A148004DA6B4
  116         bgoglin		23F194455C8CB97C983FE504461F3C17C3DC59FA
  117          bgupta		AF113DD0EC498CD884BDCB36C0F8864CDA3D0358
  118           biebl		09B3AC2ECB169C904345CC546AE1DF0D608F22DC
  119           bigon		7E0ED3D2B34A03B15F9F3121C7F7F9660D82A682
  120         bigpaul		69A5548C414511168CA92CB594483FA354DB33D3
-=-=-=-=-=-=-=-=-=-=-=-=-=-=-=-=-=-=-=-=-=-=-=-=-=-=-=-=-=-=-=-=-=-=-=
Count      Debian UID		 Key Fingerprint(s)
-=-=-=-=-=-=-=-=-=-=-=-=-=-=-=-=-=-=-=-=-=-=-=-=-=-=-=-=-=-=-=-=-=-=-=
  121      blackxored		99E8E74E7B4F93AEF32A552399730D5C8A9A3084
  122           blade		648DD98F4BC4829017CB0E3469740E5CB35FEC3C
  123         blarson		D5D098AFB14363734F4178618351C3C268AC5746
  124             bod		52D5B1593D7FD9146A5A63071C7C41EDEBDDBB60
  125         bossekr		5202EA4B6946AE85149A9BB0376941AB835EB2FF
  126         bottoms		07CA87DDC4C2B06240B6B1745041F1891F44E090
  127          boutil		30414D81DC28290C25686DE3DA4958F611E149E9
  128         bpellin		B67ACB32C21FC4FE6EDEC08175E1C1E9710F68E2
  129            brad		E114EC83721B6D205D7E16B04BFDBDA66045FB1E
  130       bradsmith		D20172742FE1A92AC45CEFAB8F70629AC718D347
  131         branden		1573D54473C3988F00963E4FEA4C661F2B46A27C
  132         bremner		815B63982A79F8E7C72786C4762B57BB784206AD
  133          brianr		578A87BDBE6D8A04DF7A6EB30D46FE7CD21DF495
  134        bridgett		38378E6102542A8BBF7475959E86D9142C9ED607
  135          brlink		F8AC04D50B9B064B3383C3DAAFFC96D1151DFFDC
  136         broonie		3F2568AAC26998F9E813A1C5C3F436CA30F5D8EB
  137         brother		BDDB667058EE6756BBAA28B196DD4846A3D2357B
  138              bs		D930653A114193BFB8F6163E20D6688259EF5DBC
  139             btb		79982CB0635F170ADFE9643DB5E01C5DE678D1A1
  140         bubulle		D5C2F9BFCA128BBA22A77218872F702C4D6E25A8
  141         bureado		7C1081B53C566C78AC7D3A2D51602C8D005C3B82
  142            bzed		ECA1E3F28E112432D485DD95EB36171A6FF9435F
  143          calvin		A97746CDF7094611A44D27FA781C250432EC6F3E
  144            camm		F1B068F9933AAC362A30A7957331B5C057F045DC
-=-=-=-=-=-=-=-=-=-=-=-=-=-=-=-=-=-=-=-=-=-=-=-=-=-=-=-=-=-=-=-=-=-=-=
Count      Debian UID		 Key Fingerprint(s)
-=-=-=-=-=-=-=-=-=-=-=-=-=-=-=-=-=-=-=-=-=-=-=-=-=-=-=-=-=-=-=-=-=-=-=
  145        camrdale		FF0784FEE439DA85CAF1EA950F1F76E20D2036AD
  146        capriott		7D9BD9F6F21953332D1DC4F9E283C86878398A01
  147           carey		5A98FF2242DC75277ADE7A58252CC4C873D446C2
  148          carnil		04A4407CB9142C23030C17AE789D6F057FD863FE
  149          caroll		86233022C12B6ECFC90A400785045872DA83FD56
  150         carsten		B638FD9E5E6B184FCF9E2363329465A24F1FC85D
  151             cas		96747EE24AC6F5EF3C5752C3EC326810CD5626F0
  152        cascardo		DF813B226DD39A2C530F6F7D0ABA650372FD9571
  153            cate		B7A728128390BBB21AC66F9EF9935424B1DF9A57
  154         cavedon		C62F5124B8950ADBF7F3AB4C13C0B5667A38B0B0
  155           cavok		3A0F2F80F79C678A89364FEE06779033A20EBC50
  156         ccheney		2D31192787D71F249FF91BC5D1065AB38E384AF2
  157            cech		0163FBB25BF0E1C8E530944CD152FFDAD06A8654
  158          cedric		995F58995A9D3DED9D473DD56E69973CF7E8BC63
  159        cespedes		8574F8F3947725F5B339896D7A95A5B988784703
  160             cgb		C7F61E9C32910EADCB8E55987806CD6F133108EA
  161              ch		0AA3E8791D82F59E77A40096911F4AE686A118E6
  162          chaica		DD34BB88EFB7DE735C77597C0270A2758CD736E2
  163          chrisb		5F0D82B343AECAD8BB0B5D19C39E74E049E3ACD3
  164          chrish		BE3D5AF7470A183F0E518C339A8DBEF268396FD2
  165          chrism		4C8F6B0D121EB15F076FEB1704EE131AE6D621BE
  166        chrissie		F3A06327D7557480440C458685E8FBFCF0B27113
  167       christine		FBE01342FCEFD379D3DCE61764959FE9838DF19C
  168       christoph		9FED5C6CE206B70A585770CA965522B9D49AE731
-=-=-=-=-=-=-=-=-=-=-=-=-=-=-=-=-=-=-=-=-=-=-=-=-=-=-=-=-=-=-=-=-=-=-=
Count      Debian UID		 Key Fingerprint(s)
-=-=-=-=-=-=-=-=-=-=-=-=-=-=-=-=-=-=-=-=-=-=-=-=-=-=-=-=-=-=-=-=-=-=-=
  169        chrisvdb		3C83C334CC3F81F836575C1E96E3F1336AED591E
  170        chrsmrtn		6C4486ED6D66999F4CCAB79C53E8165BEBEDB32B
  171        cjwatson		AC0A4FF12611B6FCCF01C111393587D97D86500B
  172           cklin		B5963B24A9B200B55CDB636CAAAEC012DD0F6268
  173        clameter		88462A803BAE94ED94BA98DCD29BBFFC442E63C2
  174        claviola		3BE16591C78C2AA431DDAEEF640602273516D372
  175           cleto		1FC9AF77380C91A8545F4CE24933DAB400EF5DFB
  176           clint		2100A32C46F895AF3A08783AF6D3495BB0AE9A02
  177           clown		4B50F1E3080C21A291F48BF0CD603B5A2ECF984B
  178             cmb		C3267C307B6DFBF86BA89107462E80ACB7D86E0F
  179             cmc		FA59358BA580CA386695714FCEB14A7A1DDC990D
  180        codehelp		7F71C1E9C78E735D0360C6CCF167E43C8143B682
  181          colint		AB8B748CBD90258044D955D2FA0C410738C9D903
  182            cord		767C80485684A391A1576818EF653E8D5AF4C462
  183          corsac		4510DCB57ED4704060C6647630550F7871EF0BA8
  184         costela		8AE6CDFF6535192FB5B659212262D36F7ADF9466
  185           coven		DB0DF889C81596F203DF0C5104E76310EFC18770
  186          cowboy		684A1F8DC9BBE0DFF3168C9F015427E3A4B47676
  187             cph		424626C56C4AA9DB11194C07E3AA82D81B352C01
  188        cristian		745ECE2B47D405CB9342FEFF80F7DBDCCF4D32E4
  189          csmall		5D2FB320B825D93904D205193938F96BDF50FEA5
  190         csurchi		D1E29A9D17120E948671834E0CFF30E126257B68
  191         ctaylor		664EA5A523AFF245748FE1992E9354A1A9FD4821
  192             cts		32E1DE99463F182E167A3E04700D567871B28342
-=-=-=-=-=-=-=-=-=-=-=-=-=-=-=-=-=-=-=-=-=-=-=-=-=-=-=-=-=-=-=-=-=-=-=
Count      Debian UID		 Key Fingerprint(s)
-=-=-=-=-=-=-=-=-=-=-=-=-=-=-=-=-=-=-=-=-=-=-=-=-=-=-=-=-=-=-=-=-=-=-=
  193           cupis		716E40B5BEBE5B231C7E17F6233B8A57E4875FF9
  194           curan		060096CEF3C8E733E5B61587A309D76CE1DE59D2
  195          cworth		CEF8DDC8019CA66D4E3094F3600233BA9E54DC61
  196           cwryu		5F6EC41CE863A6C519953A5B01B47334E0D49E99
  197             cyb		5E045B0EA831824D9E5F58716754891DEAAC62DF
  198             daf		3798CF214178565EFDE7480BA43E6D27128287E8
  199             dai		0B29D88E42E6B765B8D8EA507839619DD439668E
  200           daigo		17C558FC44F27E08DDF13BBC35C3E3FAE91CD250
  201          dajobe		F879F0DEDA780198DD08DC6443EC92504F71955A
  202           damog		5CFA8779892CF7B0E515E960482D17E94DADEC2F
  203           danai		2D9353BFB3CEFFA531AA4BF76436436109F34024
  204          dancer		183A70FC47321B8757A5CE82D8377D4EE81E55C1
  205         danchev		1AE77C660A265BFFDF225D551C570C890E4BD0AB
  206           dannf		09F47DBF2D32EEDC2443EBEE1BF83C5E54FC8640
  207             dap		F36251F76D5185EBAF6875B9D29B1AFCF90FFFE5
  208           dapal		81D96BD19A3AEE396FDBD30C0359959479467018
  209            dato		7F9AD2ADCD3737FD60FD0A114F1A998EDA6AE621
  210            dave		D4A9BBA214CF41C95B89517502D0204508FB0EF7
  211          davidc		A3602018526B3DFF52BEE5AAB0F7E8C60FCC27C6
  212         dbugger		F3A12880BCF7F8047C39B29E292A35920034C733
  213        dburrows		07FB533591FD5ACC4CBC5DBF721EB1B0CEE44978
  214         debacle		7ED1DEA345D9A0A118D4A740E3E0A1C286B963EA
  215       debalance		671925C5B8CDE74A52253DF9E5CA8C4925E4205F
  216         decklin		55782B782151EEB381717DE6B8824687F1968D1B
-=-=-=-=-=-=-=-=-=-=-=-=-=-=-=-=-=-=-=-=-=-=-=-=-=-=-=-=-=-=-=-=-=-=-=
Count      Debian UID		 Key Fingerprint(s)
-=-=-=-=-=-=-=-=-=-=-=-=-=-=-=-=-=-=-=-=-=-=-=-=-=-=-=-=-=-=-=-=-=-=-=
  217            deek		7102808A7733C2F3097B161B9222DAB89840105A
  218          deepak		4BEBFC6A62FC0CB40E10F2CEC4D1681A7F217B01
  219        delaunay		08BA6695BF3358B0935624DCAE77E041B9D56A91
  220          dererk		A6C7B88B9583046A11C5403E0B00FB6CEBE2D002
  221             des		1E0849A352646367675AD4897D08E5236EB95A6F
  222           devin		9C6437CD1B7B029D093349EA1E5276729197B5F9
  223          dexter		56B4B786A62D3EA134CF264C84C1C77BC0B10A5B
  224        dilinger		5D4272A835DA48D030B0392B3A65F019CFD42F26
  225            dima		38841253CD2BCA0BB3432E9F35FC9EEA97AA33D6
  226         diocles		058051A76AEE285679C2260C7B7B40AD0F81D93B
  227       directhex		C10B0C427181A34B1BC5FEDDC90F9CB90E1FAD0C
  228          dirson		42384696F272C9882A01DB8A575B95B25C33C1B8
  229           djpig		EFFDC2C90B84664F14B3096E41B9F4E85B713DF0
  230             dkg		0EE5BE979282D80B9F7540F1CCD2ED94D21739E9
  231       dktrkranz		DDC53E5130FD08223F98945649086AD3EBE2F31F
  232             dld		4AC29C6152C82353307E4BDEC39FFC6F55A410A0
  233           dlehn		F52701E6467CAC15EDC9F9273C8408581A3B48DE
  234        dleidert		B5E7DDCA01B39BEE841B1E199B46F1FB088F6B8C
  235         dmartin		6D77976A392AEE47CA4331D3A3F5DC7342000462
  236             dmn		AEA0C44ECB056E93630D9D33DBBE9D4D99D2A004
  237        dnusinow		F2E1D6829607241FE54C12A8C8B7E935D63469DF
  238             dod		9F7239FCB664F10B33E9DC03C31F4FD949AB2B6C
  239            doko		2DA00A3E65263CACE706175A4AD9516B0F932C9C
  240             dom		CB496527F9009F2B1C1A76DAC0057E714D694FB2
-=-=-=-=-=-=-=-=-=-=-=-=-=-=-=-=-=-=-=-=-=-=-=-=-=-=-=-=-=-=-=-=-=-=-=
Count      Debian UID		 Key Fingerprint(s)
-=-=-=-=-=-=-=-=-=-=-=-=-=-=-=-=-=-=-=-=-=-=-=-=-=-=-=-=-=-=-=-=-=-=-=
  241         domibel		9B6432712BA2149AAA03CD481800A1F8B351A900
  242             don		2AD865BA26040F67F9CC3660A2D13001D98C0FBA
  243          doogie		AD46C888F587F8A3A6DA32618A2C7DC28BD4A489
  244           dopey		F42F871071C27603A56F16184FDEC6E7E160649A
  245       dottedmag		A8DF13269E5D9A38E57CFAC29D20F6503E338888
  246        dparsons		A110EAE1D7D280765FE0EC0AB6CE704164124E4A
  247         drazzib		B3C1A1178EF9C84C6FC7FC1C75E20CCD33E749FC
  248        dreamind		A681868486470C5D79B9A59D8B9D310A97C398CB
  249        dsilvers		19568523759E2A2858F4606B3CCEBABE206C3B69
  250            duck		6ADD5093AC6D1072C9129000B1CCD97290267086
  251         dwatson		5FDBB1BE9B31D3A8298172850DE8799EA7D6AE79
  252              dz		3CEDBDC64F23BEDAF4892445147F1AEA2DB65596
  253             ean		1C977AFDCD9B00F2BC509A088C09994F6E48A047
  254              ed		E959DBA0092A7AD23F41500E7649D1C5B4A4E070
  255             edd		344C9EC6707AFA176FE260B1099491F791B0D3B7
  256        edelhard		DD2937062B8D22A8DEA2C302941C86926F222F1F
  257         edmonds		73FE5760EBEA331FC39F83E7769FBF4873014091
  258          eevans		C4965EE9E3015D192CCCF2B6F758CE318D77295D
  259          eichin		345EAE92AEFDE9FBDE0395C317E92B42206F8A04
  260       eighthave		5E61C8780F86295CE17D86779F0FE587374BBE81
  261            eike		753636FE62768F94785D2042C3F8A3A26A8333C6
  262          elbrus		58B66D48736BE93B052DE6729C5C99EB05BD750A
  263             elf		E39685B176DB94BE4CE9A40F57E8CE072EAE5D2D
  264          ellert		EA1830AFDF4D431AD9E11452E8AEC2FF3BE1A94B
-=-=-=-=-=-=-=-=-=-=-=-=-=-=-=-=-=-=-=-=-=-=-=-=-=-=-=-=-=-=-=-=-=-=-=
Count      Debian UID		 Key Fingerprint(s)
-=-=-=-=-=-=-=-=-=-=-=-=-=-=-=-=-=-=-=-=-=-=-=-=-=-=-=-=-=-=-=-=-=-=-=
  265            eloy		AC3A464ADF876468F63DCCB2F8D31F49DEB0EC31
  266             ema		DEE850F81C5AF8208DD629D30BA0EE03EAF19B60
  267           emfox		7E74053E142DB9CC313111B8F8C41B2CF7142EC2
  268        emschwar		FAA6D8592F0BAED7C3329F7AEBAD6E5CBAC59E39
  269           ender		48C4D999F69A4615AF5F28535ACFC4840D62001B
  270          enrico		1793D6AB75663E6BF104953A634F4BD1E7AD5568
  271        eppesuig		43AAF8E27A0E57F4DC7FFD022207C594EC97089D
  272            eric		43CF1228F726FD5B474CE962C256FBD500221E93
  273           erich		6073C8748488BCDAA6A9B7619ED078EF4B3A135C
  274            erik		1C6E77A082DA2EDBD1B125B498C99E8BDB898410
  275           eriks		0DAFEEA41C0CFD21111B5C3FC007DEBB30825345
  276           erinn		8738A680B84B3031A630F2DB416F061063FEE659
  277           error		228FAD203DE9AE7D84E25265CF9A6F914193A197
  278            etbe		D51E60CA98996009F1A4B4CDC2B079FCF5C75256
  279           etobi		26C0976C594BE3C7A5A392DDF7180D26AEDAA642
  280           eugen		AC9D68316918E4C026567767C16DA8E7F451B93C
  281            evan		A9EBB297CD4424F81CF269A850AA7015A876F581
  282          evgeni		C575A957E819BA18BF07E766A1B09B42333961E8
  283             evo		E5D870FFBB267D90D52C56B5347A7D93176015ED
  284           fabbe		A74A703C8FC9198EB12DD83DEFA55436964199E2
  285        fabbione		3EEECE2D3F83E4D423551223842CDB7A44779E18
  286            fabo		CEE06509A9D42D28D2573EA88CF535F66AA572F7
  287            falk		6AA2ABD3C802094EF1FF283BD386DEE262EEAD8B
  288             faw		36CCC10F61849F24F04E0CB1C6B8598485522E2D
-=-=-=-=-=-=-=-=-=-=-=-=-=-=-=-=-=-=-=-=-=-=-=-=-=-=-=-=-=-=-=-=-=-=-=
Count      Debian UID		 Key Fingerprint(s)
-=-=-=-=-=-=-=-=-=-=-=-=-=-=-=-=-=-=-=-=-=-=-=-=-=-=-=-=-=-=-=-=-=-=-=
  289           fenio		42B8C61FF6EACE10BCBAFAE9850BA2DE13FEFC40
  290          fgeyer		164C70512F7929476764AB56FE22C6FD83135D45
  291              fh		F9AB00C13E3A8125DD3FDF1CDF79A374B4071A65
  292          filipe		BDC59E6BC8E3B139DAF07E6998A15B3EA6BA423E
  293         filippo		22D52C906D6677F159F10030001CDE6A6B79D401
  294          flimsy		96B05A4725393FEDC181A3A3726C2995383F25B5
  295             flo		86079AD8227425A11AF9B4D151ACF6AD75BE8097
  296         florian		34F879978BC103F09C43F3D7B3753E4D514B3E7C
  297             fog		697807F613F7E0A359D1FF95BDC0A0AE06468DEB
  298            foka		142421B19AD4A95996F95072EA2500B412C59ACF
  299        formorer		6E3966C1E1D15DB973D05B491E45F8CA9DE23B16
  300        fourmond		1EBA24A7DAAE662C6FF34B37C7F521C122B282CA
  301         fpeters		7149147DF2F46AE03D556E3B2AE901E5C70218D2
  302          franam		320DD86E1E256275B28F89D729CEADC9260F0067
  303       francisco		CF682F046496EFEA663C24419A953C82556ABA51
  304          franck		C10ED1D0EF700A2ACACF9A3CC490534E75C089FE
  305        francois		8C470B2A0B31568E110D432516281F2E007C98D1
  306           frank		25C0E61BDC474BA7204E62F5FB1B3D632252FA1A
  307         frankie		0579A97A2238EBF9BE61ED020F02A5E1163686A4
  308           freee		0AA4EABAF45D81DF35E90F9771A9C91A57159E59
  309            frob		1FFBF62CFFAB43DDDC81F6AEDAF7350A7EBBD625
  310              fs		E4E44DEECDA10D901DD99DA4EA7ED2A341954920
  311        fsateler		218EE0362033C87B6C135FA4A3BABAE2408DD6CF
  312            fsfs		30B23C8B4E6A3B09EAA6B65212973B6E72DC07B5
-=-=-=-=-=-=-=-=-=-=-=-=-=-=-=-=-=-=-=-=-=-=-=-=-=-=-=-=-=-=-=-=-=-=-=
Count      Debian UID		 Key Fingerprint(s)
-=-=-=-=-=-=-=-=-=-=-=-=-=-=-=-=-=-=-=-=-=-=-=-=-=-=-=-=-=-=-=-=-=-=-=
  313             fst		976E747F499C458015CBC0BF7EDE8735DC426429
  314           fuddl		1B954398F362AD2DC5E6718BBAB12CF0C7C58F7C
  315            fuji		D4024AF37488165BCC3441477F0CD922EE4C26E8
  316              fw		C8D3D9CFFA9E70563F32FA54BF7BFF0402D524BE
  317         garabik		9AF5D8B0862D2224400768DF501409C6A0FE58B8
  318          garden		19D5773DE17EB7D5C1CB87B763D2D5D907F89BB8
  319  gareuselesinge		C11A5053569A7C8C1758E311250533CCA29B764F
  320         gaudenz		836E4F81EFBBADA7085279BFA97A7702BAF91EF5
  321             gcs		A0DF7E0D3851E0EE45C00BC8ACE1F33CB933BBBB
  322          geiger		D73EEDEC8D5CBE955D9BC6AAD696CA8660B6B958
  323        geissert		84DAEA2133802516C38106F7632E3DAD46D9CE5A
  324        georgesk		3F9902038EBCC061F16D2AA19DF99BDA11691130
  325             ghe		498639DAD152050B46999A7166DB5A3626F020F7
  326           ghedo		A4F455C3414B10563FCC9244AFA51BD6CDE573CB
  327        ghostbar		3E7D4267AFD524072A3720AC38A0AD5BCACAB118
  328          gildor		DEC45F25277079F50ED0841F47BE58A24A3CB85A
  329             gio		82D119A840C6EFCA6F5AF9459EDCC991D9AB457E
  330         giskard		7961298678142F4C15D2191282F0707088D224B6
  331           gismo		C331BA3F75FB723B5873785B06EAA066E397832F
  332           gladk		BBBD45EA818AB86FF67E7285D3E17383CFA7FF06
  333        glandium		182E161D1130B9FCCD7DB167E42AA04FA6AA8C72
  334        glaubitz		62FF8A7584E029569546000674263B37F5B5F913
  335          glaweh		B733A61DFE90985905ED4B218233A6D22D2F75EF
  336        gleydson		BC8103B7B2891227A02E675AA56BC3DF985BA281
-=-=-=-=-=-=-=-=-=-=-=-=-=-=-=-=-=-=-=-=-=-=-=-=-=-=-=-=-=-=-=-=-=-=-=
Count      Debian UID		 Key Fingerprint(s)
-=-=-=-=-=-=-=-=-=-=-=-=-=-=-=-=-=-=-=-=-=-=-=-=-=-=-=-=-=-=-=-=-=-=-=
  337          glondu		58EB0999C64E897EE894B8037853DA4D49881AD3
  338          gniibe		124124BD3B4862AF7A0A42F100B45EBD4CA7BABE
  339         godisch		D363691F1C4E70D71B9E07DE84E64AA009FC015C
  340         goedson		20FCAD60E8C8D2EB064A8F5BEED8D4CC1DEB8EAE
  341          goneri		1FF368E8019913731705B8AF049ED9B94765572E
  342           gotom		44A9EDF44076706A22B761A0A88A9AB0864826C3
  343              gq		04B59D90DF7CC2ABCD49BAEACA87E9E82AAC33F1
  344         grantma		C1A1C3F1135DBE0936705CE3C44E5FFC1335C3A2
  345          gregoa		D1E1316E93A760A8104D85FABB3A68018649AA06
  346          greuff		01FA29EF7F5666A86596C50143225D698FC03128
  347            gris		8B94819C255570A374B62CCD26E3C875A74420EF
  348           grisu		3CAB9397E835E2E95289A0C0F85EBF46258D8781
  349         guillem		4F3E74F436050C10F5696574B972BF3EA4AE57A3
  350        guoliang		2B7F82AF50DADDE16B6F486D82B5B40868C097BC
  351             gus		24D6980A17E05B155DED1F1D83FFC87BD02F8773
  352          guterm		E7C65AA9EA49291F7781577F3606C51455BFD024
  353            guus		4D1B7796C03E0831991BDD423F490DEB871EF9FA
  354           gwolf		AB41C1C68AFD668CA045EBF8673A03E4C1DB921F
  355            haas		9B26F48E6F2B0A3F7E33E6B7095E77C579CC6586
  356           hakan		5F760FDECF30A6206A6F82DD01BB5D753DE37DC0
  357          hallon		DC6C12B4698D0D907C54380ED115D067AA5FD7AC
  358           halls		BE88B4B38D1F6639580FCCEE7B199D131997E7CF
  359          hamish		79D417AFF510BE814C308BCDDF45A8055D07E95C
  360        harmoney		0B802C3FCA9B1E61A518D4BA306A6CBC5388573D
-=-=-=-=-=-=-=-=-=-=-=-=-=-=-=-=-=-=-=-=-=-=-=-=-=-=-=-=-=-=-=-=-=-=-=
Count      Debian UID		 Key Fingerprint(s)
-=-=-=-=-=-=-=-=-=-=-=-=-=-=-=-=-=-=-=-=-=-=-=-=-=-=-=-=-=-=-=-=-=-=-=
  361        harshula		B6DFFF2AEEE316B030F2B4D18D55C80D3430D100
  362        hartmans		39272F04C8E560DC056CE2F3FC8D76733C86260F
  363          hattas		9C0712D92B0C8978C547B98BB72D2AB365B328C6
  364        hazelsct		D54D1AEEB11CCE9BA02BC5DD526F01E8564EE4B6
  365              he		0C2CE3E83489599A75EF115698EE733A9DE1EEB1
  366          hecker		C3CF4178B8AD5871DD100B17CC1332317C796B7D
  367          hector		E1BA871DA5EA78F3FCBDBA5B330B038B6C63746D
  368           helen		B7938AC2CC488357C29939C2DDE35CF15653C9C4
  369         helmutg		4CC2D2D90A8D1654DBF873AA2D1AAACF24444442
  370         henrich		58E1222F9696C885A3CD104C5D328D082AAAB140
  371         hertzog		3E4FB7117877F589DBCF06D6E619045DF2AC729A
  372             hmh		54225C61F6B706FB7E043738EE25DE3F1CDB0FE3
  373         hoexter		7C0717F9FA2B2B9D788B141BA6DC24D9DA2493D1
  374          holger		B8BF54137B09D35CF026FE9D091AB856069AAA1C
  375        holmgren		CD2A073B386154170A4082E8D4F219BFEC998489
  376           honey		057F5FF9577DA76DCC2168E7306C483AFF1F7A5C
  377           horms		B2F9C5E313771B0DC8B0F6B503C0023E05410E97
  378          hsteoh		FFFF328C0D4BBCC8033DFA92D1A539B0B0C3105C
  379             hug		210E1CD0A6A31386914A14510953ED7BAD69A1CB
  380          huggie		021A833AD2A1015C00103BC9310765FBDF5CE2B4
  381      hvhaugwitz		2BBBD30FAAB29B3253BCFBA6F6947DAB68E7B931
  382        hyperair		12E0D09DFB3FF7F759D36ED0FBD5225B588752A1
  383         iamfuzz		2A62FCF3BBE867727440369C9258A798513F86CD
  384            ianb		AF6CC0F11E74424BBCD5481440ECC154A8BAC1EA
-=-=-=-=-=-=-=-=-=-=-=-=-=-=-=-=-=-=-=-=-=-=-=-=-=-=-=-=-=-=-=-=-=-=-=
Count      Debian UID		 Key Fingerprint(s)
-=-=-=-=-=-=-=-=-=-=-=-=-=-=-=-=-=-=-=-=-=-=-=-=-=-=-=-=-=-=-=-=-=-=-=
  385            ianw		446ECB19D158C53D263691D058395253F829E9E7
  386           igloo		C3ED6F9C2E5B4CFA6030E409EB7CBAA680C83E8E
  387          ijones		414EAC7008BC7BC4836E7CA604B3D367B2B831A2
  388             iko		2123906893F464530847785D1144E4ADA7228C38
  389            ingo		B2A37622D32A0D1CCE3F3DF2E17AD7B5090DD8D5
  390       intrigeri		1152BF136B7A1B1C49FCA659BACE15D2A57498FF
  391        ishikawa		A7DBB59A4268DDF2276035947E2F30EEECA94FA8
  392        iuculano		AB92A49538EF7A0EC816A997371A69E3AE3BE9AA
  393          iustin		CB94E3AA3B1755D61EBB19A5F66E3E419F84F4DE
  394            ivan		68CB5B3A48FC18F17D79A94681872F9B54C1C1C9
  395           ivodd		F07D9E73D66E69748C1626CD824294CD0217E8D8
  396        iwamatsu		5E629EE5232197357B84CF4332247FBB40AD1FA6
  397             iwj		559AE46C2D6B6D3265E7CBA1E3E3392348B50D39
  398             jab		D5D39EFC140AB9FF953572D76B37E8DD34B36856
  399          jackyf		505D0AA78F90F6B23CC296A8A7ED831F59B3A0E8
  400           jaime		51C915494C030E7F2150F1F0111E3AA0BFBCC985
  401             jak		D9D9754A4BBA2E7D0A0AC024AC2A5FFE00823EC2
  402         jaldhar		48DFD0003BE71FF8D9C15832DA460E47EE6DC66A
  403       jamespage		AB23E9A98422889E08C3838CBFECAECBA0E7D8C3
  404        jamessan		91BFBF4D6956BD5DF7B72D23DFE691AE331BA3DB
  405         jamuraa		87F192C444AA4105B1C4EDECD9959620C00E9159
  406             jan		37B12F75F77FD8EE47105A455299B4990437AC41
  407           jandd		B2FF1D95CE8F7A22DF4CF09BA73E0055558FB8DD
  408           janos		ED856FB82F9DA804C678D9959E509C93D26DF9D3
-=-=-=-=-=-=-=-=-=-=-=-=-=-=-=-=-=-=-=-=-=-=-=-=-=-=-=-=-=-=-=-=-=-=-=
Count      Debian UID		 Key Fingerprint(s)
-=-=-=-=-=-=-=-=-=-=-=-=-=-=-=-=-=-=-=-=-=-=-=-=-=-=-=-=-=-=-=-=-=-=-=
  409             jaq		F2296392EC63C9A7F5B0E809E6EF68372CFD1C38
  410          jaqque		D8C64C2CE88EE5CF873716C4ADE94F6507799E74
  411           jason		5028E73900DC3E7BDE6C6ED6EDC63044925288BE
  412        jaybonci		7DF3D4B58EAD38D84E554E3B68530A812B47DCDE
  413         jbailey		DCAF16D5BB56B970A8F9EC88E4CE6199D0980A99
  414       jbelmonte		784F4E389A576829378B105BE4D7E0EA4C40410A
  415        jbernard		4DB7E515795C4C73CCA668B069783A9EAD536107
  416          jbouse		C745FA3527B432A691B33935D573D5B129AB4CDD
  417        jcorbier		49B286EB0461CEAC2E347CC516AD84C0641323B1
  418        jcristau		7B27A3F1A6E18CD9588B4AE8310180050905E40C
  419             jdg		96711FD81FCA6831282D6F7A0D4E7DC3FDB4E459
  420             jeb		859120FE0D9FA6A5B054C775AEC828749D85C53C
  421           jello		73173B093B03CFB85108AD14B11BD919079A3B98
  422          jelmer		DC837EE14A7E37347E87061700806F2BD729A457
  423          jenner		4F032C3CACA0C02D9BB218E3D203CCA5FDA6B6A9
  424          jeroen		D9E45378D0F9E4B20622D299976B884B0813569F
  425           jewel		325A3DD1F8D5E51C5D1D83725EB9E72A228A3AE4
  426             jfs		86AADB04D2F5CC553A4D940FB1A9DD82DC814B09
  427        jgoerzen		276D7B77B69B756C7CB68669DD29F88442839ED3
  428              jh		03F39777FE54A8F65545EBFBCA07E61412AA1DB8
  429         jhirche		3C4D08BDE22F1DEDEDA3251B1D3C025FE7DFC3B7
  430             jhr		79A045FB6FC78F80CE0FED32E083EC151231C465
  431           jimmy		46B65063C267884B1282170F751AB5DDA79679CC
  432             jjr		16D2E421C2C9B60E9DC466AB5430209C4DD7CC93
-=-=-=-=-=-=-=-=-=-=-=-=-=-=-=-=-=-=-=-=-=-=-=-=-=-=-=-=-=-=-=-=-=-=-=
Count      Debian UID		 Key Fingerprint(s)
-=-=-=-=-=-=-=-=-=-=-=-=-=-=-=-=-=-=-=-=-=-=-=-=-=-=-=-=-=-=-=-=-=-=-=
  433          jlines		A87F09E8B4C54890B17A6DF41F126539964685E7
  434         jluebbe		2376B53EDE22A15829A63D2BBBF68F03E8F37941
  435         jmarler		15F9573925428D361188CDF49E2B9967C33F126D
  436       jmaslibre		B3ED4984F65A9AE06511DAF4756BEB4B70D8FB2A
  437             jmm		B6E62F3D12AC38495C0DA90510C293B6C37C4E36
  438            jmtd		E037CB2A1A0061B943363C8B0907409606AAAAAA
  439             jmw		0A55B7C51223394286EC74C35394479DD3524C51
  440          jochen		61A90CB8CE09966D0741880BD1F857D18FE8733D
  441            joel		9F4BD7806EF45700778D8B220064F9FFBB845E97
  442           joerg		FBFABDB541B5DC955BD9BA6EDB16CF5BB12525C4
  443            joey		B53FE57BD0C1F689FCE256235B9AA5F8801EA932
  444           joeyh		E85A5F63B31D24C1EBF0D81CC910D9222512E3C7
  445          johfel		477C8339D36D766ED853201C8359193BFDCB09C4
  446           johnf		AB74DDFD5B64218A7D5998F361C749B1C77828D4
  447           johns		A4626CBAFF376039D2D7554497BA9CE761A0963B
  448             jon		B8F572F14CC831F9013F7B1E8E62E7F764011A8B
  449           jonny		A4FA7977AA06AFA87D33380781812383AD289755
  450         joostvb		B8FAC2E250475B8CE940A91957930DAB0B86B067
  451           jordi		73ED4244FD43588620AC2644258494BA917A225E
  452           josem		B5644BBB97419F11A461719D39A237CB2809E61A
  453           joshk		3F3787880D85019456F741CBA3882EBF78446F26
  454            joss		8C62F78F73041328C670C347AD295AE1D75F8533
  455         joussen		7A10EB66D499C62996CD88C2307B5229D2A6B810
  456             joy		741B5485DB27D5CDC6E75D4D8D29AB07711AE871
-=-=-=-=-=-=-=-=-=-=-=-=-=-=-=-=-=-=-=-=-=-=-=-=-=-=-=-=-=-=-=-=-=-=-=
Count      Debian UID		 Key Fingerprint(s)
-=-=-=-=-=-=-=-=-=-=-=-=-=-=-=-=-=-=-=-=-=-=-=-=-=-=-=-=-=-=-=-=-=-=-=
  457        jredrejo		4491BB79CD5AD94A66814B0C9AA551D966A90DE2
  458        jrnieder		521E58F17E96D712AA0FF102DFC671EEB333FA25
  459              js		9FE3E9C36691A69FF53CC6842C7C3146C1A00121
  460             jsa		87FCDA315F00C8850DC3E28FBD0D4B33A997BA7A
  461           jsogo		B06B023FEAA637DC1E62B0794BE0582590788E11
  462             jsw		8FEFE900783CF175827C2F65D14219877A786561
  463          juanma		FCA1A9FEC037B51928CF9FC2E361D392B0AA8450
  464          julian		C2C8904E314CD8FA041D9B00D5FDFC156168BF60
  465          julien		E1D8579682144687E416948C859FEF67258E26B1
  466           jurij		1D0120342DF409F5CBB0A0459388188B43C30A7D
  467           jwilk		CDB5A1243ACDB63009AD07212D4EB3A6015475F5
  468           kaare		5E5C4B0E1AFD7325CF66500F962680C5305A9418
  469            kabi		B9B99D73B04756F9FDDF98A91885AD387D42F16E
  470           kalfa		0DBD8FCC4F6B8D418F4363A1E43B153CCB467E27
  471           kamal		73EE922658C2E07340EA9613E7F710555409E422
  472           kamop		2D2B6C13DB888AD4F69FDCD73A0A01731BAE93B9
  473            kaol		09C397FE531118695A533445840867EE9D8F265C
  474          kaplan		C644D0B392F48FE44662B5411558944599E81DA0
  475         kapouer		03C4E7ABB880F524306E48156611C05EDD39F374
  476          kartik		6B631B5EF554AF6B1196629202C1D3F2783AA4DE
  477         kcoyner		FA7FB8C09F87C4A0482F4A86EBB31A62C85D8F71
  478             kcr		198F5EAE4F00F3D1E9A7BC50B1CA92E8A7D86B95
  479            kees		A5C3F68F229DD60F723E6E138972F4DFDC6DC026
  480          keithp		C383B778255613DFDB409D91DB221A6900000011
-=-=-=-=-=-=-=-=-=-=-=-=-=-=-=-=-=-=-=-=-=-=-=-=-=-=-=-=-=-=-=-=-=-=-=
Count      Debian UID		 Key Fingerprint(s)
-=-=-=-=-=-=-=-=-=-=-=-=-=-=-=-=-=-=-=-=-=-=-=-=-=-=-=-=-=-=-=-=-=-=-=
  481         kelbert		058963931BFCABEDBEB2091E640E642E2F2F0CDE
  482          keving		C6EA9EA1442B7F369645F89DF3AC49989AD13245
  483          keybuk		8D2D1F62A4AC9A22FEFCB0DC21EC4FDC84AD676C
  484          khalid		1FEA0251FD47DBF5A4062BE7950118DBA895B621
  485           khkim		7DB291A3CA1BE7078065B873F36D89424DB97694
  486            kibi		B60EBF2984453C70D74CF478FF914AF0C2B35520
  487          kilian		75FFFC9F717B526296A20609BDD933B785FEC17F
  488          kitame		DC1A298CE5C95ECE9A0882263D6903DFE1D316DC
  489       kitterman		E7729BFFBE85400FEEEE23B178D7DEFB9AD59AF1
  490             kix		3F480B8CC385AD419E28006A7B1F549072B74923
  491             kju		9D50042EFF89954364AF01CF509880E3F6A10C2D
  492             kmr		D7A055B647683582B10D3F0C112ECDF2C4A3823E
  493           kmuto		9CCC5C22C10955B58F55A51B1D21C83DC452E0FC
  494            knok		99452B4DD28BEEAC8AB5C931B06662EC9C0C1404
  495          kobold		54656E69E5596466BF3D9F012BF8EE2B7F961564
  496          kobras		6665725C400A7EE071500F60A4E2880389BF7E2B
  497           kohda		3AAAE18DDBB4C8D056173880D485DD2F5BFA90EC
  498          kolter		4D0D537E8C37BC99DFF10B874B077723929D42C3
  499          koster		374FF2AD0A12935FD0B0C84F1B132E01CEC6AD46
  500             kov		9AE55601A23412FF423FA999D200EB30A0FB5DA6
  501           kraai		6F0E1FA1F92FF96EDE2E56C97CD760631557BC10
  502           krala		97A41066E5643748977593C33298C70DE5FFEDE1
  503         kreckel		96D40549E44DA739FDAAF2A55D8EE50CF0199162
  504        krisrose		291FC71D8BD6EECCAAF88379C4D012FFE0163787
-=-=-=-=-=-=-=-=-=-=-=-=-=-=-=-=-=-=-=-=-=-=-=-=-=-=-=-=-=-=-=-=-=-=-=
Count      Debian UID		 Key Fingerprint(s)
-=-=-=-=-=-=-=-=-=-=-=-=-=-=-=-=-=-=-=-=-=-=-=-=-=-=-=-=-=-=-=-=-=-=-=
  505         kroeckx		E5E52560DD91C556DDBDA5D02064C53641C25E5D
  506           lamby		0F1E5C1F1D3DF7DBAEE04288E7FF2E5B634F9A20
  507          lamont		8A46ADB3FC4B4B24DF1728BACCDFE49B0A0AC927
  508           laney		3D0EFB95E7B5237F16E82258E352D5C51C5041D4
  509           lange		B11EE3273F6B2DEB528C93DA2BF8D9FE074BCDE4
  510            lars		0CA2E3A6FBC7BC3BEBDCCEB8EB5CE1D75E8511F9
  511        lawrencc		CAC6254513564ED7507019B3DB040A13A3D7B9BC
  512         lbrenta		55D962BB3022E32672E82C28F1C9A83C08AA3E9C
  513         ldrolez		754210E3866279DB1123D352B1195000FD46A698
  514     leatherface		34C2252964508E0BCC4BDE66397F3DB1C97A628E
  515           leist		63490CA7D9728AA050A620FEB14BCEFE316DC8FB
  516        lfaraone		51892A7D16D049BB046BDC7797325DD8F9FDD506
  517        lfilipoz		CE98F258BB344F29F4F5AF45B5754A69B6BE608C
  518         lfousse		D743B1583C04D940A78E8C4246801517A1696D2B
  519         licquia		1DA0F1B5FAC435E895C76E28600A553FF666C91D
  520       lidaobing		2F18947301F75240A6E8B1BCE5350AE06087D2F8
  521        lightsey		FA48D2AF2802F1824D5828230587B26E45F3FBF9
  522           liiwi		C4402EA201E79D54E6EA61DE24C5CFE4F5521541
  523           lindi		9A5C6B0937685F8E11878BD84D249D9B23E6FC3A
  524         lingnau		7381CB06184C5C490FE59CED0EEF2AE4AF8165FC
  525          lintux		D604F94B5A4C45E84E8465187985979AE3304051
  526        lisandro		12DDFA84AC23B2BBF04B313CAB645F406286A7D0
  527          ljlane		732368015D7002442ECE3563C490643655D3A1E9
  528          lkajan		91B46ECD90312D7C86F9469A9BD2D6409A0C52FA
-=-=-=-=-=-=-=-=-=-=-=-=-=-=-=-=-=-=-=-=-=-=-=-=-=-=-=-=-=-=-=-=-=-=-=
Count      Debian UID		 Key Fingerprint(s)
-=-=-=-=-=-=-=-=-=-=-=-=-=-=-=-=-=-=-=-=-=-=-=-=-=-=-=-=-=-=-=-=-=-=-=
  529         lmamane		3ED52FEE3D7080106D89D734EED5716B078E43D4
  530          lohner		72076C7376397FBEEDE66EA8E9B0C69E268462E3
  531            loic		24F2720EC693FEA0A564F8DEF1D2CCC8497A176D
  532         lolando		B415360F591EB6DD73AFFB83D30DECD2599322FC
  533            lool		EA721EE999D3135F0860E545F114084C08611111
  534         lopippo		B053304E17D6D419DD9B465141AB484D7694CF42
  535           lucab		74785B728B8AB530C60BF30346AA1B6A3BFB9FB3
  536           lucas		FEDEC1CB337BCF509F43C2243914B532F4DFBE99
  537         luciano		6B2CC5967BD1BDEA9E589B296EC2DEF68FFE3774
  538           luigi		12F89C0389D3DB4A9972C24AF19BA618924C0C26
  539             luk		A4AD7A700EE5F70F31B16FA32127371B9BB23062
  540           lunar		ECF2DEA89EB90C612440B2B84814DEC22B307C3C
  541           lupus		9A303F9907A03230D188B75A2EF5710914C6A712
  542           lutin		5732F0C3999089EEC643F0651106F2005BB6E4A5
  543              ma		7DDF975E73435ACD725E62159A6027DB1A944AD7
  544            mace		7345F2F751F07700FEB7FE2087D5E190EBC73D63
  545       madamezou		A197352049C1BDBDA18E763CDB686C92D9D59F61
  546        madcoder		72B4C59ADA78D70E055C129EBC6AFB5BA1EE761C
  547         madduck		2CCB26BC5C49BC221F20794255C9882D999BBCC4
  548         madhack		7FC70DC0EF31DF837313FE2B77A8F36A3B047084
  549         madkiss		6D2D424D824C81DA7D6F1ED41CFA3E8CD7145E30
  550         maehara		6A2E6A5438F1D1D815136CDF27122D42A674A359
  551            mafm		2A8E80505C486298430DD0937F7606A445DCA80E
  552             mak		D33A3F0CA16B0ACC51A60738494C8A5FBF4DECEB
-=-=-=-=-=-=-=-=-=-=-=-=-=-=-=-=-=-=-=-=-=-=-=-=-=-=-=-=-=-=-=-=-=-=-=
Count      Debian UID		 Key Fingerprint(s)
-=-=-=-=-=-=-=-=-=-=-=-=-=-=-=-=-=-=-=-=-=-=-=-=-=-=-=-=-=-=-=-=-=-=-=
  553         makholm		A32897E97EA9BAE5A7195812A1B13F2C2C8B195A
  554            mako		E6445A655AF81C0F9DECA73589CD4B21607559E6
  555            maks		B62B5DA4A31446F014F8D66410252E653A91E527
  556           malat		693367FFAECD8EAACD1F063B0171E1828AE09345
  557        malattia		058E0BBC57E7F03479579D3182944F68EA2D2C41
  558           malex		EE63C471ADBA5D80ADFB1054DA286F326C5F196B
  559           manty		3F0A12FC0B55A917D79182D372FDC205F6A32A8E
  560          manuel		802EB746852F21A39239C111F16961C8CC8D7957
  561         mapache		E506FDDEA891E826E7137B4A1E198A792782AF55
  562          marcot		658A2ACF83A6E5D7F6E45E3AD7884C4718E18F44
  563           marga		00C3E184E8AF12711856DFD280D0A42FF2C850CA
  564        marillat		1D7FC53F80F852C188F4ED0B07DC563D1F41B907
  565           mario		DF3AB6653EEB747A7BDD9B7327D10348DD1B0EF7
  566          markos		3FC37391FECDD3CB550171216606027F6437124C
  567           marks		70E466E41AF7052F7F2C3B275D3CE77FD54F0847
  568       martignlo		363D3EF3CC922069949C4F116C572D708B143975
  569          maswan		C0BD59FEBBFA2A7E8A41BB3F91374E81825BEF79
  570          matrix		25C32A87055A4275EBB9DFAC3D3E735D83467A34
  571            mats		1624F9A558458C84DB055684EE3A9F0281C2A4AC
  572           mattb		6583A11F1428FCDD65FCC7B5E0CD3CDC59B2D9A0
  573         matthew		BA4EF9C84DF96D37D8A1E2D412F4D21C8F6A63C8
  574        matthijs		28F4DD779010CEAA86ECE5BE15C18EF489FA4CBE
  575         mattice		050C2D2FA95A25BBB61FCD16EC3BCAC4137A955E
  576           mauro		2B82A38D1BA5847AA74D6C346AB79ED6C8FDF9C1
-=-=-=-=-=-=-=-=-=-=-=-=-=-=-=-=-=-=-=-=-=-=-=-=-=-=-=-=-=-=-=-=-=-=-=
Count      Debian UID		 Key Fingerprint(s)
-=-=-=-=-=-=-=-=-=-=-=-=-=-=-=-=-=-=-=-=-=-=-=-=-=-=-=-=-=-=-=-=-=-=-=
  577            maxx		30DC1D281D7932F55E673ABB28EEB35A3E8DCCC0
  578            maxy		F8921D3A7404C86E11352215C7197699B29B232A
  579           mazen		E1870B62BFAB87447FEDE31A8F7274F307062A38
  580          mbaker		110D06BC02F6447AD80CA75E2E4F86BA8B0D42F9
  581          mbanck		9CA877749FAB2E4FA96862ECDC686A27B43481B0
  582           mbuck		74FD81B904BA906F79712714E676B867F8D54259
  583       mckinstry		CD45260A4546C3C0F595F0F64132BF902A385C57
  584              md		6791403B68AE2690517C42EAE6FFF1E38DC968B0
  585             mdj		B282763CE63729B64B024260D722058FC0033D7A
  586             mdz		A24331921670F0060A97500A8A111B5CAE426944
  587        mechanix		CAC10932B6B9876840DBC6AA1239F7098E950E00
  588          meebey		ABE195E150A8DBE7809D3F427127E5ABEEF946C8
  589           mehdi		BD838A2BAAF9E3408BD9646833BE1A0A8C2ED8FF
  590            mejo		2C8CD283D3EFDF433890E7835262E7FF491049FE
  591         mendoza		9B0B8CFD05F333F786C7B5DB3056F0EF4C2D3EFA
  592        mennucc1		F58548B594504CC6AD853EC3F41FED8E33FC40A4
  593          merker		9C208F6D50870F9BFF3D4FBD7D46C81CFAA95931
  594          meskes		5818BF0C98A32B8382BFD3B4564126F229F19BD1
  595           metal		BEDFC897106617F139BC7279019F7E073264A5C4
  596        meyering		155D3FC500C834486D1EEA677FD9FCCB000BEEEE
  597             mez		065BFD16E4BFB184D73F768C2AFBD67FD133AC6E
  598           mfurr		5B9F587FBC5CD82350CE4DB0ED93CA29124B26F3
  599        mgilbert		1FBB8F049963FA032C3DAD88A784FF770F0F4FFA
  600          mhatta		6EB39358D8328FE3CDC903A8CB6FA340E7075A54
-=-=-=-=-=-=-=-=-=-=-=-=-=-=-=-=-=-=-=-=-=-=-=-=-=-=-=-=-=-=-=-=-=-=-=
Count      Debian UID		 Key Fingerprint(s)
-=-=-=-=-=-=-=-=-=-=-=-=-=-=-=-=-=-=-=-=-=-=-=-=-=-=-=-=-=-=-=-=-=-=-=
  601             mhy		309911BEA966D0613053045711B4E5FF15B0FD82
  602           micah		4777535FE5471562626077B58CBF9A322861A790
  603           micha		A3EBB41FC5ABD675CEE41C45EA6CA6B951B85139
  604           michi		16FB517BA866C3F68F111485F3E4122F1D8C261A
  605          midget		BAA17AAFB21D6567D457D67DA82FBB83F3D57033
  606             mih		5701F1D0D18B87E61AA31F3DC073D2287FFB9E9B
  607            mika		04AEE62C9502CD34A7DA857BD8DF53FB37E272E8
  608         miquels		AEE3CFA76134028A2E290DA1E42E41CAFD50FF4F
  609          miriam		AA46F4F2BD5975A4EE4282237DB96D2E36EE0861
  610       mithrandi		DB24E315EDAAAC13D646709958C0FB1CDE3B7600
  611             mjb		F3A5FA523D1DCD1FB05BE328D90A1C75F90F9FF1
  612           mjj29		F629EC43E00419987CF4214417274627C4FB7099
  613             mjr		B55E1248ADE6909495BAC7E59946397AE142E6F4
  614             mjt		6EE195D1886E8FFB810D4324457CE0A0804465C5
  615           mkoch		BAC54B28D43695E6F2E0BD115923A0082763483B
  616           mlang		ECCF01262122210307349CFAB87D9ADC46820241
  617             mlt		D02D8C0CADBBA69BBF0F6EADB2B05F45D626ABB6
  618        mmagallo		4389F70092A2044E83520EFE7A81833366468D05
  619           mmind		795D0851095CAACA16CA79259AFB7B8C9A5F5BBC
  620         mnencia		7C23B8043E65D2980A21B6E2589F03F01BA55038
  621        mnordstr		737357552CC0B16C4339258FC0A4F11DE06B3F97
  622           modax		9E8CCC49180D6A1500B400881CEF494673EAE214
  623         moeller		84C1977A89E7EFED3E5CA62E2FD8BEDAC020EED1
  624           mones		CFB7C7796BAEE81C3E0571722C045542C9B55DAC
-=-=-=-=-=-=-=-=-=-=-=-=-=-=-=-=-=-=-=-=-=-=-=-=-=-=-=-=-=-=-=-=-=-=-=
Count      Debian UID		 Key Fingerprint(s)
-=-=-=-=-=-=-=-=-=-=-=-=-=-=-=-=-=-=-=-=-=-=-=-=-=-=-=-=-=-=-=-=-=-=-=
  625           monga		412390227937157C990177E5846A74DB6538F5BF
  626          monica		403ACC0852105B2334EF153E1EFEB1801A49C0D2
  627           mooch		A103263A1923373E122746A06DEA9281DA034410
  628           moray		586377100EB11C2DAD7E1B3EE74D29B82BE16D01
  629        morimura		B3AA8A8AC95EEA2877AA140D6F0B4F8857D68A06
  630        mornfall		16A286B6CA6FC9FA6280C9D5BD099FA292DC02A9
  631           morph		CE3353BB501F115039D0DC2402E93057444DD950
  632         mpalmer		AC17A3ECE2C52DC48898CC4B0449EB4D69351387
  633           mpitt		3DB46B55EFA59D40E6232148D14EF15DAFE11347
  634        mquinson		4FBE9C4EEA52EF13D541661298BD97244F73BEA7
  635             mrd		A3C693AF5805F46B67D596B2CF153232C24B6010
  636              ms		F369DA7EB08B0320562F5D6BCE04080E9456ADE2
  637         msameer		9F73032EEAC9F7AD951F280ECB668E29A3FD0DF7
  638             msp		51B335E71D4C13261A37E86DA02CDA9F3D08B612
  639          mstone		02D5315FF11F1861860E1E02F61AACDCFA11FFDE
  640              mt		467348C85F3A5A9B2B0D169EBF1E9D1F76D52AC4
  641        mtmiller		930750035A15E27C3830740728FA801A43BDD637
  642         muammar		90B8BFC44A75B88139A3144030EB403B127029F1
  643           murat		0D70D69D9D5B00E4E74E674300959FA39C478D49
  644             mvo		EA71B29645974D8B343E821E962483E15662C734
  645            myon		5C48FE6157F49179597087C64C5A6BAB12D2A7AE
  646          naoliv		8C215F25828DA7C07F462399010C2EA6D9309644
  647             nas		9B3B987BF40E932006190A17A366302EB1DE86CE
  648         nathans		71DFD2B345C267FF2B7F06CE9BC7E5DC74886B63
-=-=-=-=-=-=-=-=-=-=-=-=-=-=-=-=-=-=-=-=-=-=-=-=-=-=-=-=-=-=-=-=-=-=-=
Count      Debian UID		 Key Fingerprint(s)
-=-=-=-=-=-=-=-=-=-=-=-=-=-=-=-=-=-=-=-=-=-=-=-=-=-=-=-=-=-=-=-=-=-=-=
  649        nboullis		C382DF92991C50061204E0C4C26C97906D4FC66F
  650          nbreen		843E5FA61E6063389876D2E5EE4AFD69EC65108F
  651          nduboc		C0D3F2F00CAC142A46239110100952B5F801A743
  652            negm		CFB557734D191507C4B0A38A27FEA5D163E8BE82
  653            neil		9A8DC9566B8148801557A82BEA3FAC90FAEEB4A9
  654           neilm		8217A2055E57043B2883054E7F55BB12A40F862E
  655          nekral		96F7A8CCA87F0EB8349701B25A0A399AEA7CF5AD
  656        netzwurm		C6AEBDCC834C811871A3634176112FBCFCB1DD23
  657        nhandler		31DCC3B33F2179883DA014C7CAFB3BAD0A75C877
  658      nickrusnov		C4616C2533DABA992A1F0F3C54D4094CF1219B84
  659         nicolas		62D94D32A99722112F59F7F2B52A9CF4490DFC8D
  660           nijel		63CB1DF1EF12CF2AC0EE5A329C27B31342B7511D
  661            nion		E1ABDE0EFFCAAEF394947592CD4B2AF3A0A0AAAA
  662         njordan		807BA7C50D7D81C0C21F1D36775AC806095918D0
  663           noahm		D896D80AC0307F05701ED53562B54B8C11404EC3
  664           nobse		4A6B2543679D43B02B635439AFF4670B0F7A8D01
  665            noel		A45E405C0C6C80F13FF1521768C078BE88F80CDA
  666        nomadium		4CB7FE1E280ECC90F29A597E6E608B637D8967E9
  667         nomeata		1A46087F955D93C57C60571B3D908AB3F0FBF51F
  668          nonaka		B800BE0B06D78EEBFF980CCF563D7CEC0B191787
  669         noodles		0E3A94C3E83002DAB88CCA1694FA372B2DA8B985
  670         noshiro		756D73EF1C11668A5E495F5C8607903DBDF0AAD0
  671        nthykier		B3131A451DBFDF7CA05B4197054BBB9F7D806442
  672           ntyni		5B06791DDCF1684488D8E4810D06A759E6D38790
-=-=-=-=-=-=-=-=-=-=-=-=-=-=-=-=-=-=-=-=-=-=-=-=-=-=-=-=-=-=-=-=-=-=-=
Count      Debian UID		 Key Fingerprint(s)
-=-=-=-=-=-=-=-=-=-=-=-=-=-=-=-=-=-=-=-=-=-=-=-=-=-=-=-=-=-=-=-=-=-=-=
  673          nveber		CF677AECDC3E11621E32AF6AA217C4C35E2EB5B4
  674             nwp		3A6D1E36E58A91CCC372A68E7592489BCC983928
  675         obergix		ACE46EBD89F6656D6642660BE941DEDA7C5BB6A5
  676            ocsi		63311CAEC24642A4A15DF75079FCCFD2B0458F4D
  677            odyx		5D3E052646729E4E85F05B3FD929F2992BEF0A33
  678             ogi		5A4375C9244E9554A975F2F6AB98288E36D33D07
  679           ohura		54F6D1B12EE181CD65E3A1D3EEA2EFA277DCE083
  680           okoli		E6BB7EF8CC4D7FF79D570EAA6042B0B5D3F974DF
  681           olasd		791F12396630DD71FD364375B8E5087766475AAF
  682           oliva		EB3345F56441B8B81A7798767DFA41AD961985D7
  683            olly		08E2400FF7FE8FEDE3ACB52818147B073BAD2B07
  684           omote		5230575778003789D68AFD38E1060E07B25A5CF1
  685          ondrej		30B933D80FCE3D981A2D38FB0C99B70EF4FCBB07
  686         onlyjob		50BC7CF939D20C272A6B065652B6BBD953968D1B
  687          oohara		61428D079C5B159BC1701F4A40D6F42EF464A695
  688            opal		7090A92B18FE79940C364FE418A1B1CF0FE53DD9
  689         osallou		5FB46F83D3B952046335D26D78DC68DB326D8438
  690           osamu		253A40766A3BCCE2A426DEF5E80FC4C1A8061F32
  691          otavio		B7F7F218A0541D2A0BEDBE8BEB70FEF3CDFC6E4F
  692            ovek		E37B9BC2CB44DC419FEA4EE103E18C6B83E5110F
  693              p2		950CA1EA6493A7F64A90AA4D28B295C3F46EADBB
  694            pabs		610B28B55CFCFE45EA1B563B3116BA5E9FFA69A3
  695            paco		CDE122BC836DA44098A853D41BD0E4A5D047CDE1
  696            pape		23F41D24FF2C083DB0932EC2189A3241BC70A6FF
-=-=-=-=-=-=-=-=-=-=-=-=-=-=-=-=-=-=-=-=-=-=-=-=-=-=-=-=-=-=-=-=-=-=-=
Count      Debian UID		 Key Fingerprint(s)
-=-=-=-=-=-=-=-=-=-=-=-=-=-=-=-=-=-=-=-=-=-=-=-=-=-=-=-=-=-=-=-=-=-=-=
  697        paravoid		A9592C521CB904077D6598009D0B5E5B1EEC8F0E
  698            pasc		A86D7CED4E8C17F64457FD1ADFEDBB2225BCD5BF
  699          pascal		710F265D7B816542F23CE054D4B7DDF7B16CCA95
  700          patryk		DC02BED6463913B817BB6AEC5EC42C53D86A66BA
  701            paul		3C77E7F046F8D3653F3873F2BADBEFA9B4D6DE13
  702         paulliu		DA06F3E341E999EC18C376DDA108FBC534A26946
  703     paulproteus		D00436A90C4BD12002020A3C37E1C17570096AD1
  704         paultag		8F049AD82C92066C7352D28A7B585B30807C2A87
  705          paulvt		B73B7544AA9E528E838E88F9241061CA50064181
  706       paulwaite		7F9E800AFC6BA5928914D71FB5F92902090C3B23
  707             pdm		C9024BD80CFFBE4529EBA711912924FE3DC29B41
  708           pelle		1559FABEB1CE464DAB7F2E7178302C4B8DBFEC2F
  709           peloy		31A2171EFA6B051885809BD86A08D37C0B4D63D8
  710            pere		830C56B4125681C54D71CFD1DB4CCC4B2A30D729
  711         periapt		B0838C2660D764D9D806455CB6C4D9B63BFFE73C
  712          petere		975450AAFA49A20BA9C89D714D3C7CA1554FB4C6
  713          peterk		EE93BB17DE3DB89F44CE4ECB92BC94766394265E
  714          peters		640FED1488F41A5ED57183585E4EEC2113D0461D
  715        pfaffben		C2D1AB061656AAC54B5E975485199DE8C6648E90
  716           philh		DFF1415ACE3227FCF20707D6D04BA3A00125D5C0
  717         philipp		C1A82BE87587215D91EBB015A95C3BECEB88E930
  718           picca		1688A3D6F0BDE4DF2E6B06AAB6A9BA6AA59B1171
  719          piefel		497DEE4549D1CF9E71C15ACDE569B5E3F30D2F35
  720            piem		BD2A847E2C31BC788631CDE592E0BDE7C6002CBD
-=-=-=-=-=-=-=-=-=-=-=-=-=-=-=-=-=-=-=-=-=-=-=-=-=-=-=-=-=-=-=-=-=-=-=
Count      Debian UID		 Key Fingerprint(s)
-=-=-=-=-=-=-=-=-=-=-=-=-=-=-=-=-=-=-=-=-=-=-=-=-=-=-=-=-=-=-=-=-=-=-=
  721             pik		29E003C86C6AC548A5E9D4E8136E9CF17B5D342D
  722            pini		A0939BCC0AC3134E56B48C91EFE86C6C7FFECF83
  723            pino		35B9B3BFB3E9765FD90E30224CD1F6A6207F2F7A
  724           piotr		1D2FA89858DAAF6217862DF7AEF6F1A2A7457645
  725             pjb		2823000E3FA98FF8EB7C100A819D278A0E6F992A
  726           pkern		F75FBFCD771DEB5E9C86050550C3634D3A291CF9
  727          plessy		73471499CC60ED9EEE805946C5BD6C8F2295D502
  728        plugwash		5340D001360CA656E3497EB70C48EA2A7A8FFD7B
  729              pm		556054EA47665DE00263CB41603B832661F9CA53
  730        pmachard		B906A53F84E049B66CF782C2B3A02D6623706F87
  731       pmatthaei		58A03DC582425A4DC8B90E1312D9B04A90CBD8E4
  732          pmhahn		3F898015C8F3F388BF34FA0560F960A19A540E39
  733           pochu		709CA6C7EBE6259C5DF7643E9D46C488E4368302
  734          pocock		F50FF72AADF5C01BF0FCE5636C6580E77BD756C4
  735          pollux		BF18695797741DB24E59188FC61A64DCF1393998
  736        porridge		35E913449F775F4313DD6423DBF480C602F946FC
  737         pouelle		6FB77BB89C41C8C8D2D2B59A19B267802103329F
  738        ppatters		DAED39803772421B1AE40F3945458ADCB1E557A0
  739         praveen		2A7974AE2FC152D77867DA4ACE1F9C674512C22A
  740        preining		F7D8A92826E316A19FA0ACF06CACA448860CDC13
  741             prh		587D9A3EC1D563EAD4245DDEC79838D0436337DD
  742         profeta		E2860604AA3AA178E04870C36C979FDE44E22ACD
  743        pronovic		1DCB88A1B90EADFE318CEBE4F0E9F6BA3CD95104
  744        prudhomm		370350DE7A9F024E0F260D07A18FB40BD4BE1450
-=-=-=-=-=-=-=-=-=-=-=-=-=-=-=-=-=-=-=-=-=-=-=-=-=-=-=-=-=-=-=-=-=-=-=
Count      Debian UID		 Key Fingerprint(s)
-=-=-=-=-=-=-=-=-=-=-=-=-=-=-=-=-=-=-=-=-=-=-=-=-=-=-=-=-=-=-=-=-=-=-=
  745             psg		630928AE8EB3AB5722F303BC17DC3CC470D4A979
  746      pstorralba		B9FA855DBE54DE19AD27851F995B17866B3B7323
  747        pvaneynd		177A79EBA658DBCE9854073EB59EB72202D1BC65
  748            pyro		C5B81C4D3C1663B2711E4C28D4D8356166F24521
  749             pzn		9F1F1EBB29A4918D2C5FFB9C39C979637274AA07
  750             qjb		C2C96B10011FE009E6D1DF828A75D10998012C7E
  751           racke		E5520FF2E1383E6928B3A1838E055F139B726B71
  752            radu		F3EFB12B23D9D245B7E4BE6D26431938C9ABFBD3
  753            rafl		E8DC91A1B7BEE5ABC17247EE742F2A428E635A5E
  754             rak		4E469519ED677734268FBD958F7BF8FC4A11C97A
  755             ras		D25DD87DF8EA9ED1D1465023F5231C62E7843A8C
  756         rbalint		8A125F698A1F7762B5D5363E55AD141521E764DF
  757             rbd		3779F472BB84DFE1A650C304DDC7ECFBB4F83169
  758             rcp		32F23DB43D709382E58BD19204D147A595E0A1A1
  759             rcw		FFFDBD99A508A2372B26C623F5CE68EB6FF0ABF2
  760             reg		976448D147ADE1E1E882966C32175C0DC1027A0E
  761           regis		BA1C73EB8400716C5B4659C1544D7BB0B12D595A
  762         reichel		F3C7DAC35EE02E9D93DF2CC3B7635728153FF940
  763           remco		C7B709D005F838EF9A48CCBDDAD5A719BCC131DE
  764            rene		E12DEA46750670CFA960801D0AA04571D03E3E70
  765      rfrancoise		BE349742CA987ECD7E77E42DAD15F435F05F962D
  766        rganesan		F36184F18D8232E71832679815E002BA5D8C12EA
  767          rhonda		5393ACF308011A978845026331FCE7E7DD079461
  768          richih		DF0BFDFF4A4DDA0179441B8F69064B0195206DD3
-=-=-=-=-=-=-=-=-=-=-=-=-=-=-=-=-=-=-=-=-=-=-=-=-=-=-=-=-=-=-=-=-=-=-=
Count      Debian UID		 Key Fingerprint(s)
-=-=-=-=-=-=-=-=-=-=-=-=-=-=-=-=-=-=-=-=-=-=-=-=-=-=-=-=-=-=-=-=-=-=-=
  769            riku		ECF3ADB2B82A839E1404D80489B3EF32CAEAAF03
  770           risko		BD1DDA696803C41A564A62072930100100003344
  771             rjs		3F437485B057EFEF2F2FA12BE90112A72B05B73A
  772       rkrishnan		4DEE15BCEEAAC544DAFD4419CF64CD61EB46CA9A
  773             rlb		E6A9DA3CC9FD1FF8C676D2C4C0F039E9ED1B597A
  774          rleigh		F33D281D470AB4436756147C07B3C8BC4083E800
  775        rmayorga		3CD593CFAF0908BE7C74A8F5BB20AC20E0B7D6BE
  776           rmayr		717A033BBB45A2B328CFB84BA1E52A7E249BC034
  777       rmgolbeck		738D57F5B656ECBA6757EB227EA7A51C29C2BDB6
  778             rmh		8E57F7A8E4B04244C915321B0B5F62A3AAD40AFF
  779         rmurray		70BC7F9D8C60D2265B7076A23760DBCFFD6645AB
  780          robert		AEE01F853E638BAACDF13D184E1875709D309C3B
  781         robertc		92228732859D25CC2560B617867BF9A9FBD3EB8E
  782        robertle		2B12EC0512C01AE25D559F3F4BA00E72145B6966
  783         roberto		2AB8EB163CA562E182A13AAE7731FCCC63E4E277
  784        robot101		10D77631735FB57CB8D146D85DCADFE13501E6C5
  785         robotux		5F35F67BAFA8B6D581CA08EBD003852FBD52529E
  786         robster		A8ED2F81B1778FFDA9A69A570B0F2929DF81EE83
  787         rodrigo		7C81E60C442E8FBCD9752F4901998318ADC9BC28
  788         rogerso		F2C341368FB175020C0C01B10E5937AC98FAA0AD
  789          roktas		2061020BA49CB3F7810815D09C0E389B3FD25C84
  790          roland		3A6324104B40422D11111D2C3BBFCF77BD8B050D
  791             ron		8A306ED1C122B4D524D05137A780421C68021CE4
  792            ross		1A21F5B0D8D0CFE381D4E25A2D09E447D0B433DF
-=-=-=-=-=-=-=-=-=-=-=-=-=-=-=-=-=-=-=-=-=-=-=-=-=-=-=-=-=-=-=-=-=-=-=
Count      Debian UID		 Key Fingerprint(s)
-=-=-=-=-=-=-=-=-=-=-=-=-=-=-=-=-=-=-=-=-=-=-=-=-=-=-=-=-=-=-=-=-=-=-=
  793           rotty		C38A39C516D7B69F33A3699322C827F735A992E7
  794        rousseau		F5E11B9FFE911146F41D953D78A1B4DFE8F9C57E
  795           rover		BF811C95882BE1C26562772D7C811013F5C9708D
  796             rra		E784364E8DDE7BB370FBD9EAD15D313882004173
  797             rrs		43DEF582F9E67111CE008917F2F11C23F00A2BE6
  798            rudi		0FDF0F1869C2AA24B45F1691A84F709AEDD3D779
  799            rudy		0D128537607E2DF54EFB35A7550F1A003433BD21
  800           ruoso		4FD0E8B755CA8EF008DC9FE11D7365A755815D42
  801             rvr		BEB43CCC0725E024F531D1DD43148E6D18EA3457
  802          rweber		E807B151497DFFBF88F8C846CCF0D5379F223683
  803            ryan		F97AD64AF267663837B603C032286FF8F69C6AC5
  804           sacha		7285A1EBA8633EE26BB23D41FDDAB37AD935CEBA
  805           salve		D3B2A3F5E9EBBDE6A245AA4A212B306C9396865D
  806            samj		BD486B9E4BFAA792CEC5FD7D0EBD65E13C093EEF
  807            samo		DDF8B22B71418194DB94817A2CEBF138D91EE369
  808        santiago		07A7044DD7EE3DC8AEB16FF5B3F25D6B00A80662
  809         sanvila		D54C3BFAFFB042DE382DA5D741CE7F0B9F1B8B32
  810            sasa		45CFB559828180918469CACDDB71AEFCABA0E8B2
  811         sathieu		AAA58B842E882CF414E0BAB1A7C72A1C782B8C3F
  812      scheffczyk		E91E9F5E01866C52F431333420258B8FA2E31632
  813        schepler		83C28932B64F1A4EE8A2D7C9342DCB0320021490
  814         schimmi		4E68B38EFDB08F638D97F1671D40E113E62B2C45
  815          schlue		2B653B348212337FB37E585A79D9469400E0D054
  816         schmitz		818AE6055310CEB65B08D8C48C7DD3254F6A478E
-=-=-=-=-=-=-=-=-=-=-=-=-=-=-=-=-=-=-=-=-=-=-=-=-=-=-=-=-=-=-=-=-=-=-=
Count      Debian UID		 Key Fingerprint(s)
-=-=-=-=-=-=-=-=-=-=-=-=-=-=-=-=-=-=-=-=-=-=-=-=-=-=-=-=-=-=-=-=-=-=-=
  817      schoenfeld		E372BEC0BF6FD89A111005364CA23313A2D8F6BF
  818        schultmc		BAE0340127D536AD2CB12FE09EC002FE1C9CA517
  819           sdier		CF67D67A398CD0B8723431C4C97425FBAE4B5D92
  820             sdt		663BD5D71E1C4AB4CD254A3AA975987B1F9FA7EE
  821          seamus		D85B36267C65069E446022FDA1231035532005DA
  822         seanius		F6FB223148A9B50C68D718ECCA78CB3E6E76D81D
  823             seb		06BD0E92721EA1C6AA4D9F2889980D29C0DDC83F
  824          seb128		E02EFEF54EC6289E6740D61C431A3CEDA2D7D292
  825       sebastien		20691DFCC2C98C47952984EE00018C22381A7594
  826           segre		B66CD97ACE820575D38E8B7B79B0126693701EEF
  827           sesse		C2E9004FF028C18E4EADDB837F61756177978F76
  828             sez		036456AA8EC8C0B08B48561B4F9F6D550ED6122A
  829              sf		3A988DCDAF09A81CB2618B31C6875F3541CEFDE0
  830          sfrost		C1FEA06F12A10FCEB7CEBC7FED6C8A3883476455
  831       sgevatter		7C0FF088052C082B442454171CFC22F3363DEAE3
  832        sgolovan		2CA20F848E5C29E3E410438221C747D36A461052
  833           sgran		84C605B363AB70ADFB6ABAE5B3118CEF8AEA8FEE
  834         shachar		F2D643A558B9924C0649207BA0C5AD1359CD3653
  835           shaka		0FA6DCF3C1B87FC2E637B9D4EE50AA3CDD81604C
  836           shane		F099A5F4B77CD6F66A992E6C7B9DBAD42A7E0F3D
  837         sharkey		608B549B779A8DAAED28FEF1725525032224FABC
  838          sharky		C8845CF9E83F50114D07A264D2CF64921ACE2687
  839         shlomme		190200025DFC856BF146894C7CC5451EA244C858
  840             sho		5C809377432D6157DDF52D5D055C4B35FFFFFFFE
-=-=-=-=-=-=-=-=-=-=-=-=-=-=-=-=-=-=-=-=-=-=-=-=-=-=-=-=-=-=-=-=-=-=-=
Count      Debian UID		 Key Fingerprint(s)
-=-=-=-=-=-=-=-=-=-=-=-=-=-=-=-=-=-=-=-=-=-=-=-=-=-=-=-=-=-=-=-=-=-=-=
  841         showard		9A57344C54D3C8610A5F22FCBAA569D0CBF12A6A
  842           shugo		EEA16E29E9EEE8297499CD796771A2CC718329DC
  843        siretart		B3932517957C77DF066EADC40D1B6F07658CB036
  844        sjackman		FEDD8BFA71ED33F4F8F4F469D4ED5223F4E57996
  845          sjoerd		36CB6E311236B81B3A38054B81377E4A8768B1D2
  846             sjq		F934244D4E26DBDEC9EFBFB721319B944C1A5BE5
  847             sjr		040EB5F784F14FBCCEADADC618A0CC8D5706A4B4
  848           skitt		79D9C58C50D6B5AA65D530C1759778A9A36B494F
  849           slomo		7F4BC7CC3CA06F97336BBFEB0668CC1486C2D7B5
  850        smarenka		C51BCC4F505F3F8C1C114EDF54A33827B62849B3
  851            smcv		DA98F25C0871C49A59EAFF2C4DE8FF2A63C7CC90
  852         smimram		52F6FEBCA7B91895F1B6D35A21A7B53B800969EF
  853             smr		5ED7B15389C4ED210E8B7F3DD22D9B3D21DB31C5
  854           smurf		AFD79782F3BAEC020B28A19F72CF8E5E25B4C293
  855           sonne		8B229447DCEBD1872719CA977F36CF55AA87AA77
  856             spa		709197B8927DAB9F40255A7BCE84E8E795A4F1D6
  857       spaillard		37241D81BA263AAF93D0B432DFF738C2D16CFBA2
  858         spamaps		F00C9F2F4F7EB714AFAD1A42538C0766F4BCB38E
  859         spectra		20A741B470D74B2077D029E86C7BFF9E99746B65
  860       sramacher		F78CBA07817BB149A11D339069F2FC516EA71993
  861             sre		EF660D07463F8B726A795413D8EED7F3C83BFA9A
  862         srittau		B4BC4D674EDE9802F9A74C17714E66B4496A1827
  863        srivasta		E37E5EC52A01DA25AD2005B6CF489438C5779A1C
  864             srk		D6EACBD6EE46B834248D111215CDDA6AE19135A2
-=-=-=-=-=-=-=-=-=-=-=-=-=-=-=-=-=-=-=-=-=-=-=-=-=-=-=-=-=-=-=-=-=-=-=
Count      Debian UID		 Key Fingerprint(s)
-=-=-=-=-=-=-=-=-=-=-=-=-=-=-=-=-=-=-=-=-=-=-=-=-=-=-=-=-=-=-=-=-=-=-=
  865             ssm		1CB293CA7D0C4C341B8CCDF340E354D9FA26E2EE
  866      stapelberg		424E14D703E7C6D43D9D6F364E7160ED4AC8EE1D
  867        stappers		32690A0477DA7273BE3F731339220D6E0C1AFFBB
  868        stefanor		8B5BD33F542BC3FC03D55A9A51106DF5CD92D072
  869          steinm		F883D8A8FB042D6731BD635D8A1D99BF0D7CA701
  870          stephe		5B8ADB53B6B308B4CF6CF46CECC1D5F5A1FC6CFA
  871           steve		445D0A1210E44A0B7352570E1258534C37EC7A69
  872         stevegr		12EDD7B538F5198A4EC4DDBA76266C50FBB1DB53
  873         stevenk		65574BDD9F3C76D0808CBF36FDD63BAF588A553F
  874            stew		388CA6A59711576C814CBD495ECAFB00A3AE44A4
  875       sthibault		900CB024B67931D40F82304BD0178C767D069EE6
  876          stigge		9328CDA73EF53AC1CDF93A8B71A1FF601BF8DE0F
  877             sto		29DF544F1BD9548C8F1586EF6770052BB8C1FA69
  878           stone		2CD6C838BE77795F5EF13E5BDA91EE7BA58E164F
  879         stratus		190852B94A166EC274D1C03BEDFB700537155778
  880          stuart		90E2D2C1AD146A1B7EBB891DBBC17EBB1396F2F7
  881            sune		5CE8ADFA1FDD9DEA6E21DCE19CCBDA1601FA8B4A
  882       sunweaver		9BFBAEE86C0AA5FFBF2207829AF46B3025771B31
  883         susumuo		8C45D3765B3907517FA5F866DEEC8C09DE415B0E
  884            sven		3FFE8447F65F659664906B530DCB394414D4060B
  885       sylvestre		B60DB5994D39BEC4D1A95CCF7E6528DA752F1BE1
  886           synrg		5887C8D4012BF84A53E5F9DA4330169952D556DB
  887            tach		94769E52D436D58B260CA7DD40D716CFE909CDEE
  888          taffit		AE14AD01426D2BFB82EF7E1EB82A217AFDFE09F2
-=-=-=-=-=-=-=-=-=-=-=-=-=-=-=-=-=-=-=-=-=-=-=-=-=-=-=-=-=-=-=-=-=-=-=
Count      Debian UID		 Key Fingerprint(s)
-=-=-=-=-=-=-=-=-=-=-=-=-=-=-=-=-=-=-=-=-=-=-=-=-=-=-=-=-=-=-=-=-=-=-=
  889         taggart		339FF8F4DEEFC8AAC77E5D1E1E4F6649EA291785
  890          takaki		D24ABFD127CD2556A13C6C79CC149F6C28A5E257
  891            tale		08505F45081052B18F5E5022E53B8AA696552D63
  892          tanguy		240BBA15B694DD00E38030D8D6EFA6AC4B10D847
  893             tao		7ACE0FB07A74F9949B36E1D1D14E8526DC47CA16
  894            taru		09F05D7A2BB04E77A73C9F84D523A6E660062884
  895            tats		031C623D94EF1F3EF17B1C84E5EFAB90080EA63C
  896              tb		A7676E0D4B855C1318128733A8CB01F5BE9F70EA
  897             tbm		D866749DF7FCD903C32D01893D0787AAAF6C61DD
  898             tca		D1820E3CCB05255CCD9855988143F7EEA5E43EA3
  899         tehnick		EF8359781239A9194D2D7F59D0015BD128F39278
  900        terceiro		B2DEE66036C40829FCD0F10CFC0DB1BBCD460BDE
  901        terminus		FF13C2E9F9C3DF547C4FEAC1F675AAE2D2AB2220
  902        terpstra		0E8944762B0B3F32B56A4043BCBBC495718A9256
  903          tfheen		A28411A596193171331802C0B65A4871CA19D717
  904              tg		9031955E7A97A4FDA32B2B8676B534B2E99007E0
  905             tgg		4B74F71B1C2272344249BF53CF62D79438E68E0E
  906         thansen		A07E3AA25DCCDAEDA6628D248C82169D8ECECD2A
  907             thb		26C536DCA9AB1F3F640EE0308771348338015E7E
  908            thep		32CC490E5A70B23DD6AA5AB2A2EBAED1B6F90241
  909         thibaut		BCADFB52B41998D74D99D98E93945348E0DC2840
  910         thierry		C643C2338B7D7A1742877D03F892981B6258629A
  911           thijs		E0D3FAAA6F50A5DA9D5B293833961588E1C21845
  912            thom		1C5DFCF9DDBE01F6ABA9CB36B5679467473F7EFA
-=-=-=-=-=-=-=-=-=-=-=-=-=-=-=-=-=-=-=-=-=-=-=-=-=-=-=-=-=-=-=-=-=-=-=
Count      Debian UID		 Key Fingerprint(s)
-=-=-=-=-=-=-=-=-=-=-=-=-=-=-=-=-=-=-=-=-=-=-=-=-=-=-=-=-=-=-=-=-=-=-=
  913        thorvald		F8919C6A91DC3A35AE1CC0BFF09B1EEDDEBA6F3E
  914           tiago		62C017B12A96919BBB7AD45DD84747ACE4B6813D
  915           tille		F1F007320A035541F0A663CA578A0494D1C646D1
  916             tim		3CDA0ACDA97EC01795A90243951F892C7FED549B
  917            timo		6B854D46E8433CD7CDC03630E0F759F790BDD207
  918            timr		1BD5D97CDF5356070609A880583CA816CD98B20A
  919             tin		7781BC58325EC6E496CAF4ED02285210789038F2
  920          tincho		E1278E7A3A87C7B622BFAA62578BD370AAA22456
  921        tjhukkan		828781B3AF3430F1687EAF6454C24FB53B0BB9A9
  922           tjrc1		5BA68CD42C5798246638C06616E2F4F5FC81E159
  923        tmancill		E50AFD55ADD27AAB97163A8B21D20589974B3E96
  924         toabctl		1C17166DC55780466188885142EE72DAC27319AD
  925           toddy		60A031EEAB8EFA24001DF0A283FD1C4682D138E0
  926          tokkee		EF0D277FACAF0159BBBDDEB510510A738501C7FC
  927            toma		D75CE26A13D756EA480838C63ED7095569C0FA93
  928           tomfa		DC7B94537F261BF96B219F90C18773559FE8D504
  929            toni		1DF6A19FCA53F97353F3F35D8A0A48874687AF4F
  930           toots		6C608C2D20FCD4624A97D1089EE43746DE599800
  931         torsten		820F6308F2B08DA24D3EC20E750807B5551BE447
  932             tpo		549A598550F2C6DB416F287C9EF854EDFC992520
  933          treacy		E922FC882675BF57E8CF5BDF13EE25B5E4B724A4
  934         treinen		02054829E12D0F2A8E648E62745C4766D4CACDFF
  935           troup		9BF093BC475BABF8B6AEA5F6D7C3F131AB2A91F5
  936           troyh		55AB31F837A4104C9C3D7F2740EAFD0BE19F188E
-=-=-=-=-=-=-=-=-=-=-=-=-=-=-=-=-=-=-=-=-=-=-=-=-=-=-=-=-=-=-=-=-=-=-=
Count      Debian UID		 Key Fingerprint(s)
-=-=-=-=-=-=-=-=-=-=-=-=-=-=-=-=-=-=-=-=-=-=-=-=-=-=-=-=-=-=-=-=-=-=-=
  937        tschmidt		F5A8E22B74F721C380A352AA73DF8DAB0A327652
  938        ttroxell		31B8BF834898E26D19354C5DE2EDE84371473F66
  939           turbo		B5EF402B69E791432461ED189A55B33CA71C1E00
  940        tvainika		10CA47C6A071726120E22E0B54703CDE1228EB75
  941          tweber		5DC46B57C74776546BF0A839C7FF938B1C1A3E49
  942         twerner		A698CD7FC5ED63FE985273C27D8DDD89C4CF8EC3
  943           tytso		52C344D60D02CD9B07031447ED3A39E393674C40
  944         tzafrir		2BBBA14DDD49D5F38C105F01C40AD676437D328B
  945            ucko		7C3AB9CFD230BD30DD009C591E7091B1F14A64A2
  946          uhoreg		96C5012F5F74A5F71FF75291AF29C719124B61FA
  947             uli		556509901902AF06ADC6E01C04AAE5B397F1AAAC
  948       ultrotter		4C951CEC98B44B68A286FF458489B14D8807529B
  949        umlaeute		7405E745574809734800156DB65019C47F7A36F8
  950           unera		1B23D4F88EC0D9020555E438AB8C00CFF8E26537
  951             uwe		0F3C34D1E4A38FC6435C01BA5DD5685778D621B4
  952         vagrant		F0ADA5240891831165DF98EA7CFCD8CD257721E9
  953         vanicat		DE8F92CD16FA1E5BA16EE95ED265C08531ED8AEF
  954         varenet		E67C0D43A75E12A5BB1CFA2F1E32C3DAB7D2F063
  955           varun		0C19C882237D25D43B8A41BE70373CF1290DB9CE
  956          vcheng		D53A815A3CB7659AF882E3958EEDCC1BAA1F32FF
  957        vdanjean		621E3509654DD77C43F5CA4AF6AEF2AFD17897FA
  958            vela		48B484D197DD75FB5727B665A9B62CEAC42B63CA
  959         venthur		8795AF2E4A1A4EFBA068A4498E889544D985000D
  960           vicho		F43419496DC7B967C36C20FA07B48452768D3824
-=-=-=-=-=-=-=-=-=-=-=-=-=-=-=-=-=-=-=-=-=-=-=-=-=-=-=-=-=-=-=-=-=-=-=
Count      Debian UID		 Key Fingerprint(s)
-=-=-=-=-=-=-=-=-=-=-=-=-=-=-=-=-=-=-=-=-=-=-=-=-=-=-=-=-=-=-=-=-=-=-=
  961           viiru		B6A927C0FFE73B32D48F1DC034CD816DE6FCD33E
  962           vince		4100B65052BF970E4F1F9867894C303CEBE31EF5
  963         vlegout		55043B43EFEB282F587CF5816598789058A23DE9
  964             vlm		0BA3FF69645D021DE0542DC4E28450F601D3AB93
  965          vorlon		A7400F5A48FB42B8CEE8638B5759F35001AA4A64
  966            waja		5CE7510A8FBC0D4E72ABBA9B0C70557B5A06513E
  967           waldi		BD111DBBB521B9C3082ACC9B1E2A2F0B19116AD8
  968     warmenhoven		89AFA298E9CCD21216603EC604B7317054AD21B5
  969          warp10		7FEB617A87114E1BDE8C89C92713E679084651AF
  970            wart		705A4C887A366A4E6A12CE5AB8CA331F10726171
  971             wdg		0CA24B9714437CBD3628A341FE87DFAD2C0FCD1A
  972          weasel		25FC1614B8F87B52FF2F99B962AF4031C82E0039
  973            wehe		ACA7C89DD03B52EA7F72AD9A4E8E6FC013282FF2
  974          werner		F8CB9B2230C25F2B113D2F3DC3DE75AE036BAB8D
  975          wijnen		98E5F9F30D3E63B7F3247065152865FB627CCF95
  976            will		FA91956AA3DB251EF0B5AC3E96FF6FE4244ACFB7
  977           willi		9FDFBD2937CEC8A249DD4D9C8CBE219C74576D81
  978           willy		38FAA231A84DE7C5724850CC2218C81E8E7C03FF
  979          winnie		8D208172388840811B85DA1CC6D50A4188C70E43
  980             wjl		41352A3B4726ACC590940097F0A98A4C4CD6E3D2
  981          wookey		655426C9FA10C1D1D3D199C221672570174FEE35
  982          wouter		CF62318D5BBED48F33ACD5431B0006256FB29164
  983           xaiki		68177B2B2BF382F8C499CB98CF953E76C24B9018
  984             xam		308E81E7B97963BCA0E6ED889D5BD511B7CDA2DC
-=-=-=-=-=-=-=-=-=-=-=-=-=-=-=-=-=-=-=-=-=-=-=-=-=-=-=-=-=-=-=-=-=-=-=
Count      Debian UID		 Key Fingerprint(s)
-=-=-=-=-=-=-=-=-=-=-=-=-=-=-=-=-=-=-=-=-=-=-=-=-=-=-=-=-=-=-=-=-=-=-=
  985          xavier		FF7A33E79EF3EB2426E86868DCF8D65B03F35988
  986          xluthi		C2ABED7E865F60C176C47757813FE83A74974824
  987            xnox		D764F6CC2AB59A38B1147D73887B60618B3C16AE
  988         xoswald		DE468D1D2744CF2854311CD785B90D23464B8DE3
  989        yaegashi		864EEF5DE946DE3814D4D2D46FEA7E2656F06D01
  990             ygh		071405537C103CFE2FB44F6D28D3E82917E57327
  991             yoh		3BB6E1240643A6156F0068548D11456375C024C8
  992        yooseong		A801E1F5D96433F6B20A1EDB0A19648B2AE7444E
  993           yoush		19A5031044F274AA16761CFDBF7C793AC9132DDB
  994         yyabuki		678AC67A3C5A16058122D62171A802D0BCD1BC92
  995            zack		4900707DDC5C07F2DECB02839C31503C6D866396
  996             zed		7408AB6A97DE9850A9F3817348F47C58D61C6283
  997            zeha		7D1ACFFAD9E0806C9C4CD3925C13D6DB93052E03
  998            zigo		A0B1A9F3508956130E7A425CD416AD15AC6B43FE
  999        zinoviev		F6A14116E18FB6B8B43EA18324FD5E649BF42B07
 1000           zobel		6B1856428E41EC893D5DBDBB53B1AC6DB11B627B
 1001           zufus		0416EDEF91138372D4970EE78745DD787582C21A
 1002       zugschlus		A3C282024F979BAD6ED484D18196A5446BBA3C84
 1003           zumbi		E90F0889545E78C82A9DE74EAF2283AA76E2AC7B
