<define-tag pagetitle>DSA-4627-1 webkit2gtk</define-tag>
<define-tag report_date>2020-2-17</define-tag>
<define-tag secrefs>CVE-2020-3862 CVE-2020-3864 CVE-2020-3865 CVE-2020-3867 CVE-2020-3868</define-tag>
<define-tag packages>webkit2gtk</define-tag>
<define-tag isvulnerable>yes</define-tag>
<define-tag fixed>yes</define-tag>
<define-tag fixed-section>no</define-tag>

#use wml::debian::security



</dl>
