<define-tag pagetitle>DSA-4753-1 mupdf</define-tag>
<define-tag report_date>2020-8-29</define-tag>
<define-tag secrefs>CVE-2019-13290 Bug#931475</define-tag>
<define-tag packages>mupdf</define-tag>
<define-tag isvulnerable>yes</define-tag>
<define-tag fixed>yes</define-tag>
<define-tag fixed-section>no</define-tag>

#use wml::debian::security



</dl>
