<define-tag pagetitle>DLA-0011-1 libemail-address-perl</define-tag>
<define-tag report_date>2014-6-29</define-tag>
<define-tag secrefs>CVE-2014-0477</define-tag>
<define-tag packages>libemail-address-perl</define-tag>
<define-tag isvulnerable>yes</define-tag>
<define-tag fixed>yes</define-tag>
<define-tag fixed-section>no</define-tag>

#use wml::debian::security

