<define-tag pagetitle>DLA-913-1 activemq</define-tag>
<define-tag report_date>2017-4-24</define-tag>
<define-tag secrefs>CVE-2015-7559 Bug#860866</define-tag>
<define-tag packages>activemq</define-tag>
<define-tag isvulnerable>yes</define-tag>
<define-tag fixed>yes</define-tag>
<define-tag fixed-section>no</define-tag>

#use wml::debian::security

