<define-tag pagetitle>DLA-892-1 libnl3</define-tag>
<define-tag report_date>2017-4-10</define-tag>
<define-tag secrefs>CVE-2017-0553 Bug##859948</define-tag>
<define-tag packages>libnl3</define-tag>
<define-tag isvulnerable>yes</define-tag>
<define-tag fixed>yes</define-tag>
<define-tag fixed-section>no</define-tag>

#use wml::debian::security

