<define-tag pagetitle>DLA-853-1 pidgin</define-tag>
<define-tag report_date>2017-3-11</define-tag>
<define-tag secrefs>CVE-2017-2640</define-tag>
<define-tag packages>pidgin</define-tag>
<define-tag isvulnerable>yes</define-tag>
<define-tag fixed>yes</define-tag>
<define-tag fixed-section>no</define-tag>

#use wml::debian::security

