<define-tag pagetitle>DLA-1031-1 evince</define-tag>
<define-tag report_date>2017-7-18</define-tag>
<define-tag secrefs>CVE-2017-1000083 Bug#868500</define-tag>
<define-tag packages>evince</define-tag>
<define-tag isvulnerable>yes</define-tag>
<define-tag fixed>yes</define-tag>
<define-tag fixed-section>no</define-tag>

#use wml::debian::security

