<define-tag pagetitle>DLA-1063-1 extplorer</define-tag>
<define-tag report_date>2017-8-21</define-tag>
<define-tag secrefs>CVE-2017-12756</define-tag>
<define-tag packages>extplorer</define-tag>
<define-tag isvulnerable>yes</define-tag>
<define-tag fixed>yes</define-tag>
<define-tag fixed-section>no</define-tag>

#use wml::debian::security

