<define-tag pagetitle>DLA-547-2 graphicsmagick</define-tag>
<define-tag report_date>2017-3-28</define-tag>
<define-tag secrefs>CVE-2016-5240 Bug#N/A</define-tag>
<define-tag packages>graphicsmagick</define-tag>
<define-tag isvulnerable>yes</define-tag>
<define-tag fixed>yes</define-tag>
<define-tag fixed-section>no</define-tag>

#use wml::debian::security

