<define-tag pagetitle>DLA-1206-1 tiff</define-tag>
<define-tag report_date>2017-12-13</define-tag>
<define-tag secrefs>CVE-2017-9935 Bug#866109</define-tag>
<define-tag packages>tiff</define-tag>
<define-tag isvulnerable>yes</define-tag>
<define-tag fixed>yes</define-tag>
<define-tag fixed-section>no</define-tag>

#use wml::debian::security

