<define-tag pagetitle>DLA-1173-1 procmail</define-tag>
<define-tag report_date>2017-11-18</define-tag>
<define-tag secrefs>CVE-2017-16844 Bug##876511</define-tag>
<define-tag packages>procmail</define-tag>
<define-tag isvulnerable>yes</define-tag>
<define-tag fixed>yes</define-tag>
<define-tag fixed-section>no</define-tag>

#use wml::debian::security

