<define-tag pagetitle>DLA-1180-1 libspring-ldap-java</define-tag>
<define-tag report_date>2017-11-19</define-tag>
<define-tag secrefs>CVE-2017-8028</define-tag>
<define-tag packages>libspring-ldap-java</define-tag>
<define-tag isvulnerable>yes</define-tag>
<define-tag fixed>yes</define-tag>
<define-tag fixed-section>no</define-tag>

#use wml::debian::security

