<define-tag pagetitle>DLA-2122-1 libusbmuxd</define-tag>
<define-tag report_date>2020-02-27</define-tag>
<define-tag secrefs>CVE-2016-5104 Bug#825554</define-tag>
<define-tag packages>libusbmuxd</define-tag>
<define-tag isvulnerable>yes</define-tag>
<define-tag fixed>yes</define-tag>
<define-tag fixed-section>no</define-tag>

#use wml::debian::security

