<define-tag pagetitle>DLA-2295-1 curl</define-tag>
<define-tag report_date>2020-7-28</define-tag>
<define-tag secrefs>CVE-2020-8177</define-tag>
<define-tag packages>curl</define-tag>
<define-tag isvulnerable>yes</define-tag>
<define-tag fixed>yes</define-tag>
<define-tag fixed-section>no</define-tag>

#use wml::debian::security

