<define-tag pagetitle>DLA-2288-1 qemu</define-tag>
<define-tag report_date>2020-07-26</define-tag>
<define-tag secrefs>CVE-2017-9503 CVE-2019-12068 CVE-2019-20382 CVE-2020-1983 CVE-2020-8608 CVE-2020-10756 CVE-2020-13361 CVE-2020-13362 CVE-2020-13659 CVE-2020-13754 CVE-2020-13765 CVE-2020-15863 Bug#865754 Bug#961887 Bug#961888 Bug#964793</define-tag>
<define-tag packages>qemu</define-tag>
<define-tag isvulnerable>yes</define-tag>
<define-tag fixed>yes</define-tag>
<define-tag fixed-section>no</define-tag>

#use wml::debian::security

