<define-tag pagetitle>DLA-2390-1 ruby-json-jwt</define-tag>
<define-tag report_date>2020-10-01</define-tag>
<define-tag secrefs>CVE-2019-18848 Bug#944850</define-tag>
<define-tag packages>ruby-json-jwt</define-tag>
<define-tag isvulnerable>yes</define-tag>
<define-tag fixed>yes</define-tag>
<define-tag fixed-section>no</define-tag>

#use wml::debian::security

