<define-tag pagetitle>DLA-1286-1 quagga</define-tag>
<define-tag report_date>2018-2-16</define-tag>
<define-tag secrefs>CVE-2018-5379 CVE-2018-5380 CVE-2018-5381</define-tag>
<define-tag packages>quagga</define-tag>
<define-tag isvulnerable>yes</define-tag>
<define-tag fixed>yes</define-tag>
<define-tag fixed-section>no</define-tag>

#use wml::debian::security

