<define-tag pagetitle>DLA-1350-1 qemu-kvm</define-tag>
<define-tag report_date>2018-4-17</define-tag>
<define-tag secrefs>CVE-2018-7550 Bug#892041</define-tag>
<define-tag packages>qemu-kvm</define-tag>
<define-tag isvulnerable>yes</define-tag>
<define-tag fixed>yes</define-tag>
<define-tag fixed-section>no</define-tag>

#use wml::debian::security

