<define-tag pagetitle>DSA-4530-1 expat</define-tag>
<define-tag report_date>2019-9-22</define-tag>
<define-tag secrefs>CVE-2019-15903 Bug#939394</define-tag>
<define-tag packages>expat</define-tag>
<define-tag isvulnerable>yes</define-tag>
<define-tag fixed>yes</define-tag>
<define-tag fixed-section>no</define-tag>

#use wml::debian::security



</dl>
