<define-tag pagetitle>DSA-4571-1 thunderbird</define-tag>
<define-tag report_date>2019-11-17</define-tag>
<define-tag secrefs>CVE-2019-15903 CVE-2019-11764 CVE-2019-11763 CVE-2019-11762 CVE-2019-11761 CVE-2019-11760 CVE-2019-11759 CVE-2019-11757 CVE-2019-11755</define-tag>
<define-tag packages>thunderbird</define-tag>
<define-tag isvulnerable>yes</define-tag>
<define-tag fixed>yes</define-tag>
<define-tag fixed-section>no</define-tag>

#use wml::debian::security



</dl>
