<define-tag pagetitle>DLA-1719-1 libjpeg-turbo</define-tag>
<define-tag report_date>2019-03-18</define-tag>
<define-tag secrefs>CVE-2018-14498 Bug#924678</define-tag>
<define-tag packages>libjpeg-turbo</define-tag>
<define-tag isvulnerable>yes</define-tag>
<define-tag fixed>yes</define-tag>
<define-tag fixed-section>no</define-tag>

#use wml::debian::security

