<define-tag pagetitle>DLA-1631-1 libcaca</define-tag>
<define-tag report_date>2019-1-9</define-tag>
<define-tag secrefs>CVE-2018-20544 CVE-2018-20546 CVE-2018-20547 CVE-2018-20549 Bug#917807</define-tag>
<define-tag packages>libcaca</define-tag>
<define-tag isvulnerable>yes</define-tag>
<define-tag fixed>yes</define-tag>
<define-tag fixed-section>no</define-tag>

#use wml::debian::security

