<define-tag pagetitle>DLA-2001-1 libofx</define-tag>
<define-tag report_date>2019-11-23</define-tag>
<define-tag secrefs>CVE-2019-9656 Bug##924350</define-tag>
<define-tag packages>libofx</define-tag>
<define-tag isvulnerable>yes</define-tag>
<define-tag fixed>yes</define-tag>
<define-tag fixed-section>no</define-tag>

#use wml::debian::security

