<define-tag pagetitle>DLA-1970-1 php5</define-tag>
<define-tag report_date>2019-10-26</define-tag>
<define-tag secrefs>CVE-2019-11043</define-tag>
<define-tag packages>php5</define-tag>
<define-tag isvulnerable>yes</define-tag>
<define-tag fixed>yes</define-tag>
<define-tag fixed-section>no</define-tag>

#use wml::debian::security

