<define-tag pagetitle>DLA-1660-1 rssh</define-tag>
<define-tag report_date>2019-2-6</define-tag>
<define-tag secrefs>CVE-2019-3463 CVE-2019-3464</define-tag>
<define-tag packages>rssh</define-tag>
<define-tag isvulnerable>yes</define-tag>
<define-tag fixed>yes</define-tag>
<define-tag fixed-section>no</define-tag>

#use wml::debian::security

