<define-tag pagetitle>DLA-1825-1 kdepim</define-tag>
<define-tag report_date>2019-06-18</define-tag>
<define-tag secrefs>CVE-2019-10732 Bug#926996</define-tag>
<define-tag packages>kdepim</define-tag>
<define-tag isvulnerable>yes</define-tag>
<define-tag fixed>yes</define-tag>
<define-tag fixed-section>no</define-tag>

#use wml::debian::security

