<define-tag pagetitle>DLA-605-1 eog</define-tag>
<define-tag report_date>2016-8-28</define-tag>
<define-tag secrefs>CVE-2016-6855</define-tag>
<define-tag packages>eog</define-tag>
<define-tag isvulnerable>yes</define-tag>
<define-tag fixed>yes</define-tag>
<define-tag fixed-section>no</define-tag>

#use wml::debian::security

